multiplier_height breeder_height tbr
115.2 54.8 0.05023872 
46.8 51.2 0.07490412 
57.6 4.4 0.009798444 
136.8 51.2 0.04323636 
126.0 8.0 0.009413856 
75.6 4.4 0.007999056 
82.8 33.2 0.0438426 
133.2 36.8 0.034332516 
72.0 26.0 0.03903228 
64.8 51.2 0.0665514 
118.8 33.2 0.034427052 
129.6 4.4 0.005169276 
133.2 54.8 0.04610628 
3.6 58.4 0.11970036 
10.8 51.2 0.10634652 
18.0 44.0 0.09249732 
21.6 40.4 0.08533548 
25.2 18.8 0.05258412 
25.2 36.8 0.07814808 
25.2 54.8 0.09404892 
39.6 22.4 0.04867848 
43.2 0.8 0.002289636 
50.4 29.6 0.05298372 
54.0 8.0 0.017678376 
64.8 33.2 0.04962492 
68.4 11.6 0.020990736 
72.0 8.0 0.014193324 
79.2 0.8 0.0014452632 
79.2 36.8 0.04852764 
82.8 15.2 0.022962456 
86.4 11.6 0.01753128 
90.0 8.0 0.012129696 
36.0 8.0 0.022687524 
14.4 29.6 0.08120052 
21.6 22.4 0.06223428 
28.8 15.2 0.042732 
28.8 51.2 0.08817552 
32.4 11.6 0.032719716 
32.4 29.6 0.0638352 
39.6 58.4 0.08497296 
43.2 18.8 0.04102524 
43.2 36.8 0.06487848 
43.2 54.8 0.07992648 
46.8 33.2 0.05870988 
50.4 11.6 0.025464708 
50.4 47.6 0.0699876 
64.8 15.2 0.027459504 
122.4 29.6 0.030720168 
122.4 47.6 0.04374756 
129.6 22.4 0.023291172 
129.6 58.4 0.04908888 
133.2 0.8 0.0009338004 
133.2 18.8 0.019557864 
136.8 33.2 0.030974112 
36.0 26.0 0.05631876 
36.0 44.0 0.07678152 
54.0 26.0 0.04666212 
54.0 44.0 0.06513336 
7.2 36.8 0.09953064 
7.2 54.8 0.11319768 
10.8 33.2 0.09048708 
126.0 26.0 0.027022104 
126.0 44.0 0.04095864 
14.4 47.6 0.0995418 
21.6 58.4 0.09931176 
28.8 33.2 0.07076448 
32.4 47.6 0.08223372 
39.6 40.4 0.07072776 
46.8 15.2 0.03326724 
57.6 22.4 0.04029696 
57.6 40.4 0.05992308 
57.6 58.4 0.07499772 
61.2 0.8 0.0017831952 
61.2 18.8 0.033908688 
61.2 36.8 0.05477076 
61.2 54.8 0.0709236 
118.8 15.2 0.017799444 
118.8 51.2 0.04698144 
122.4 11.6 0.013598028 
129.6 40.4 0.03764196 
136.8 15.2 0.015823656 
93.6 58.4 0.05837868 
68.4 47.6 0.06200784 
68.4 29.6 0.0443502 
72.0 44.0 0.05762376 
75.6 22.4 0.033682572 
75.6 40.4 0.05299416 
75.6 58.4 0.06654384 
79.2 18.8 0.028349928 
79.2 54.8 0.0628074 
82.8 51.2 0.0587772 
86.4 29.6 0.03916332 
86.4 47.6 0.05493348 
93.6 4.4 0.006749208 
93.6 22.4 0.029866968 
93.6 40.4 0.04676688 
97.2 0.8 0.0012274164 
97.2 18.8 0.025081344 
97.2 36.8 0.04274568 
97.2 54.8 0.05488272 
