multiplier_height breeder_height tbr
25.2 54.8 0.0596142 
61.2 54.8 0.04250808 
21.6 58.4 0.06363684 
57.6 40.4 0.035343144 
57.6 58.4 0.04528692 
64.8 33.2 0.028706004 
72.0 8.0 0.007733808 
75.6 22.4 0.018876492 
75.6 40.4 0.030735864 
75.6 58.4 0.03951684 
79.2 18.8 0.015722496 
82.8 51.2 0.034422876 
97.2 18.8 0.013797396 
97.2 36.8 0.024306948 
115.2 54.8 0.0289674 
133.2 54.8 0.0264141 
21.6 22.4 0.0384246 
21.6 40.4 0.05391648 
28.8 33.2 0.04347396 
36.0 44.0 0.04706928 
39.6 58.4 0.05251068 
43.2 54.8 0.04893516 
46.8 33.2 0.03476358 
54.0 26.0 0.027004536 
61.2 18.8 0.019148364 
61.2 36.8 0.032007456 
68.4 11.6 0.011544552 
68.4 29.6 0.025389864 
68.4 47.6 0.03654756 
72.0 44.0 0.033693876 
82.8 15.2 0.01258506 
86.4 29.6 0.02213064 
86.4 47.6 0.031918104 
93.6 4.4 0.0035765208 
122.4 29.6 0.017047512 
133.2 0.8 0.0004839084 
93.6 22.4 0.016575012 
93.6 40.4 0.02677986 
93.6 58.4 0.034160472 
97.2 0.8 0.0006427764 
97.2 54.8 0.031886928 
115.2 18.8 0.012005964 
129.6 22.4 0.012730968 
126.0 44.0 0.023208588 
43.2 0.8 0.00124794 
79.2 0.8 0.0007620444 
86.4 11.6 0.009498456 
118.8 33.2 0.01925118 
122.4 11.6 0.007280244 
122.4 47.6 0.02491092 
129.6 58.4 0.028280952 
25.2 18.8 0.03181374 
50.4 29.6 0.03103848 
79.2 36.8 0.027919152 
36.0 26.0 0.033598188 
28.8 51.2 0.05527224 
32.4 11.6 0.01902672 
133.2 18.8 0.010602504 
136.8 33.2 0.017210664 
36.0 8.0 0.012910428 
10.8 51.2 0.07019136 
14.4 29.6 0.05218524 
28.8 15.2 0.02533068 
126.0 8.0 0.004984344 
126.0 26.0 0.014879304 
129.6 4.4 0.0027079992 
129.6 40.4 0.021196224 
133.2 36.8 0.019198908 
136.8 51.2 0.024645996 
79.2 54.8 0.03705228 
104.4 47.6 0.028061856 
108.0 44.0 0.025983288 
111.6 22.4 0.014394744 
111.6 40.4 0.023728428 
111.6 58.4 0.031016376 
115.2 36.8 0.021480228 
118.8 15.2 0.009621684 
7.2 54.8 0.07583436 
10.8 33.2 0.05930136 
14.4 47.6 0.06475428 
18.0 44.0 0.05928372 
32.4 29.6 0.03867516 
32.4 47.6 0.0509868 
39.6 40.4 0.04286268 
46.8 15.2 0.018967356 
50.4 11.6 0.014287536 
54.0 44.0 0.0387828 
57.6 4.4 0.0053244 
64.8 15.2 0.015311304 
64.8 51.2 0.03956148 
72.0 26.0 0.02211084 
75.6 4.4 0.004279932 
82.8 33.2 0.025004016 
3.6 58.4 0.08139996 
54.0 8.0 0.009755136 
7.2 36.8 0.06655572 
25.2 36.8 0.04867596 
39.6 22.4 0.02862306 
43.2 18.8 0.0237636 
43.2 36.8 0.03888036 
46.8 51.2 0.04543776 
50.4 47.6 0.0420516 
57.6 22.4 0.023050584 
61.2 0.8 0.0009519876 
118.8 51.2 0.026929728 
136.8 15.2 0.0084987 
