multiplier_height breeder_height tbr
14.4 47.6 1.0247868 
21.6 58.4 1.0435248 
90.0 44.0 1.2350232 
108.0 26.0 1.2588876 
111.6 22.4 1.2578616 
25.2 36.8 1.100898 
28.8 33.2 1.1257452 
32.4 29.6 1.152144 
36.0 44.0 1.1291976 
39.6 22.4 1.196604 
46.8 51.2 1.144908 
64.8 33.2 1.2247848 
68.4 11.6 1.2558204 
72.0 8.0 1.2142152 
82.8 15.2 1.2564036 
90.0 8.0 1.2208428 
36.0 8.0 1.198566 
10.8 33.2 1.023912 
14.4 29.6 1.056204 
21.6 22.4 1.1189772 
25.2 54.8 1.0651824 
28.8 15.2 1.1750148 
32.4 11.6 1.19331 
39.6 58.4 1.1112444 
43.2 0.8 0.9239724 
43.2 18.8 1.2162456 
43.2 36.8 1.1709072 
43.2 54.8 1.1271204 
46.8 33.2 1.1907216 
50.4 11.6 1.2350376 
50.4 47.6 1.1615328 
64.8 15.2 1.2598488 
122.4 29.6 1.2473568 
122.4 47.6 1.2209364 
129.6 4.4 1.1184336 
129.6 22.4 1.2377736 
133.2 36.8 1.2327192 
133.2 54.8 1.212408 
136.8 33.2 1.2307932 
18.0 44.0 1.0497204 
3.6 58.4 0.9518184 
36.0 26.0 1.1757996 
54.0 8.0 1.2278952 
54.0 26.0 1.2290652 
54.0 44.0 1.1805084 
7.2 36.8 0.99225 
7.2 54.8 0.9750276 
10.8 51.2 0.9997776 
126.0 8.0 1.187226 
126.0 26.0 1.2434004 
126.0 44.0 1.2328272 
21.6 40.4 1.0752372 
25.2 18.8 1.1496132 
28.8 51.2 1.0855548 
32.4 47.6 1.1062908 
39.6 40.4 1.150146 
46.8 15.2 1.2299868 
50.4 29.6 1.212354 
57.6 4.4 1.1860956 
57.6 22.4 1.2431412 
57.6 40.4 1.1949084 
57.6 58.4 1.1597256 
61.2 0.8 0.9369936 
61.2 18.8 1.2540636 
61.2 36.8 1.210878 
61.2 54.8 1.1754936 
115.2 54.8 1.2136608 
118.8 15.2 1.2406608 
118.8 33.2 1.2474216 
118.8 51.2 1.2178332 
122.4 11.6 1.2199176 
129.6 40.4 1.2334644 
129.6 58.4 1.2094416 
133.2 0.8 0.8725428 
133.2 18.8 1.2274092 
136.8 15.2 1.2124332 
136.8 51.2 1.215936 
108.0 44.0 1.2386988 
93.6 58.4 1.1981448 
100.8 51.2 1.2106692 
104.4 47.6 1.2291876 
111.6 40.4 1.2422808 
111.6 58.4 1.209042 
115.2 18.8 1.2536568 
115.2 36.8 1.24533 
75.6 4.4 1.1808324 
68.4 47.6 1.203642 
68.4 29.6 1.2364344 
64.8 51.2 1.190106 
72.0 44.0 1.2191904 
72.0 26.0 1.245942 
75.6 22.4 1.2534984 
75.6 40.4 1.2306456 
75.6 58.4 1.1907864 
79.2 18.8 1.2586752 
90.0 26.0 1.2681828 
79.2 0.8 0.9285804 
79.2 36.8 1.243548 
79.2 54.8 1.204578 
82.8 33.2 1.2516408 
82.8 51.2 1.21464 
86.4 11.6 1.2445668 
86.4 29.6 1.2603888 
86.4 47.6 1.2260736 
93.6 4.4 1.1653668 
93.6 22.4 1.2704076 
93.6 40.4 1.2421908 
97.2 0.8 0.9153144 
97.2 18.8 1.2691368 
97.2 36.8 1.2507048 
97.2 54.8 1.2043368 
