multiplier_height breeder_height tbr
36.0 26.0 0.5911272 
97.2 54.8 0.5846004 
79.2 0.8 0.034116264 
79.2 36.8 0.5525388 
86.4 11.6 0.2873916 
104.4 47.6 0.5532444 
111.6 40.4 0.5087808 
50.4 29.6 0.5766984 
115.2 54.8 0.5595552 
118.8 33.2 0.4539708 
122.4 47.6 0.519696 
126.0 8.0 0.17748324 
126.0 26.0 0.38889 
126.0 44.0 0.5024232 
129.6 40.4 0.4782708 
136.8 51.2 0.51678 
75.6 58.4 0.6396156 
79.2 54.8 0.6239664 
82.8 51.2 0.6062508 
86.4 47.6 0.587304 
93.6 40.4 0.5414004 
93.6 58.4 0.6021396 
97.2 18.8 0.3715524 
97.2 36.8 0.5159412 
100.8 51.2 0.5657472 
111.6 22.4 0.3809376 
115.2 18.8 0.33892416 
115.2 36.8 0.4827276 
7.2 54.8 0.7382232 
10.8 33.2 0.698436 
14.4 29.6 0.6778188 
14.4 47.6 0.72063 
18.0 44.0 0.7074108 
21.6 40.4 0.6919164 
21.6 58.4 0.72297 
28.8 15.2 0.5137164 
28.8 33.2 0.6500448 
28.8 51.2 0.7018308 
32.4 11.6 0.4415076 
32.4 29.6 0.6244128 
32.4 47.6 0.6867144 
36.0 44.0 0.6723828 
39.6 40.4 0.6523812 
43.2 18.8 0.5029236 
43.2 36.8 0.6307344 
46.8 15.2 0.4454424 
46.8 51.2 0.6662448 
50.4 47.6 0.6499008 
54.0 8.0 0.290889 
54.0 26.0 0.5409144 
57.6 40.4 0.60948 
57.6 58.4 0.6680484 
61.2 18.8 0.451116 
61.2 36.8 0.5849136 
61.2 54.8 0.6550704 
64.8 33.2 0.5567796 
64.8 51.2 0.6385788 
68.4 11.6 0.32927688 
68.4 29.6 0.5249592 
68.4 47.6 0.6191532 
72.0 8.0 0.24581952 
72.0 26.0 0.4887288 
72.0 44.0 0.5998536 
75.6 4.4 0.15552792 
75.6 22.4 0.4482756 
75.6 40.4 0.5764788 
79.2 18.8 0.4016664 
82.8 15.2 0.34873128 
82.8 33.2 0.5230656 
86.4 29.6 0.491148 
93.6 4.4 0.13519836 
93.6 22.4 0.4166892 
97.2 0.8 0.029340972 
90.0 8.0 0.2174634 
90.0 26.0 0.4570992 
25.2 18.8 0.5701932 
3.6 58.4 0.743922 
36.0 8.0 0.3478626 
54.0 44.0 0.6314292 
7.2 36.8 0.7147044 
10.8 51.2 0.7302744 
21.6 22.4 0.6152004 
25.2 36.8 0.6731352 
25.2 54.8 0.7145388 
39.6 22.4 0.5507136 
39.6 58.4 0.6963372 
43.2 0.8 0.05188824 
43.2 54.8 0.682398 
46.8 33.2 0.6040296 
50.4 11.6 0.3751488 
57.6 4.4 0.18456228 
57.6 22.4 0.4992624 
61.2 0.8 0.04132836 
118.8 15.2 0.29116512 
118.8 51.2 0.5405472 
122.4 11.6 0.23733036 
122.4 29.6 0.4227264 
129.6 4.4 0.10749456 
129.6 22.4 0.35162676 
129.6 58.4 0.5526792 
133.2 0.8 0.02280924 
133.2 18.8 0.31073796 
133.2 36.8 0.4526496 
133.2 54.8 0.535104 
136.8 15.2 0.26588952 
136.8 33.2 0.4248468 
108.0 44.0 0.532872 
111.6 58.4 0.5773356 
64.8 15.2 0.3948804 
