multiplier_height breeder_height tbr
39.6 40.4 0.9607788 
14.4 47.6 0.8944236 
46.8 15.2 0.9345852 
97.2 54.8 0.957456 
75.6 4.4 0.7116984 
79.2 0.8 0.33518808 
86.4 11.6 0.855198 
18.0 44.0 0.9073908 
32.4 29.6 0.9500976 
115.2 54.8 0.9427428 
118.8 33.2 0.920106 
122.4 47.6 0.9276372 
126.0 8.0 0.709452 
126.0 26.0 0.8828856 
126.0 44.0 0.9255384 
129.6 40.4 0.9128772 
136.8 15.2 0.7873848 
136.8 51.2 0.9111672 
75.6 58.4 0.980766 
79.2 54.8 0.9830952 
82.8 51.2 0.9820116 
86.4 47.6 0.98208 
93.6 40.4 0.9709272 
93.6 58.4 0.961092 
97.2 18.8 0.9107028 
97.2 36.8 0.9638244 
100.8 51.2 0.9531216 
111.6 22.4 0.8978472 
115.2 18.8 0.870786 
115.2 36.8 0.9349272 
3.6 58.4 0.8502552 
7.2 36.8 0.8642556 
7.2 54.8 0.8651232 
14.4 29.6 0.8978184 
21.6 40.4 0.9196668 
21.6 58.4 0.9113184 
25.2 36.8 0.9317412 
28.8 15.2 0.919638 
28.8 33.2 0.9408744 
28.8 51.2 0.9342144 
32.4 11.6 0.901152 
32.4 47.6 0.9425952 
36.0 44.0 0.9540792 
39.6 22.4 0.9543096 
43.2 18.8 0.9494424 
43.2 36.8 0.9681624 
46.8 51.2 0.9632628 
50.4 47.6 0.9687132 
54.0 8.0 0.8548956 
54.0 26.0 0.9741384 
57.6 40.4 0.9763308 
57.6 58.4 0.9737208 
61.2 18.8 0.9535212 
61.2 36.8 0.9777672 
61.2 54.8 0.980244 
64.8 33.2 0.9754056 
64.8 51.2 0.9834912 
68.4 11.6 0.893106 
68.4 29.6 0.9704016 
68.4 47.6 0.9855 
72.0 8.0 0.8145684 
72.0 26.0 0.9613764 
72.0 44.0 0.9868932 
75.6 22.4 0.947358 
75.6 40.4 0.9847224 
79.2 18.8 0.9283608 
82.8 15.2 0.898704 
82.8 33.2 0.9753192 
86.4 29.6 0.9660816 
93.6 4.4 0.6696936 
93.6 22.4 0.9361188 
97.2 0.8 0.30458196 
90.0 8.0 0.788166 
90.0 26.0 0.9547848 
10.8 33.2 0.882486 
25.2 18.8 0.9236628 
50.4 29.6 0.9769572 
36.0 8.0 0.8606412 
36.0 26.0 0.9551412 
54.0 44.0 0.9749664 
10.8 51.2 0.8801316 
21.6 22.4 0.9201924 
25.2 54.8 0.9236556 
39.6 58.4 0.9506376 
43.2 0.8 0.4027572 
43.2 54.8 0.95643 
46.8 33.2 0.9716292 
50.4 11.6 0.9049752 
57.6 4.4 0.747882 
57.6 22.4 0.9662976 
61.2 0.8 0.3707784 
118.8 15.2 0.8326332 
118.8 51.2 0.9360252 
122.4 11.6 0.7825284 
122.4 29.6 0.9036108 
129.6 4.4 0.5847408 
129.6 22.4 0.8569044 
129.6 58.4 0.9278928 
133.2 0.8 0.25195428 
133.2 18.8 0.8263404 
133.2 36.8 0.8990208 
133.2 54.8 0.9194832 
136.8 33.2 0.8825832 
104.4 47.6 0.9582912 
111.6 40.4 0.9463716 
108.0 26.0 0.9205452 
108.0 44.0 0.9554832 
111.6 58.4 0.9494028 
64.8 15.2 0.9309204 
79.2 36.8 0.9824688 
