multiplier_height breeder_height tbr
32.4 47.6 0.9847692 
136.8 51.2 1.046232 
126.0 8.0 0.9564048 
79.2 0.8 0.582606 
86.4 11.6 1.022148 
115.2 54.8 1.0537848 
118.8 33.2 1.0631304 
118.8 51.2 1.053738 
122.4 47.6 1.0525644 
126.0 26.0 1.0492164 
126.0 44.0 1.0582956 
129.6 22.4 1.0379124 
129.6 40.4 1.0557036 
133.2 54.8 1.0462104 
136.8 15.2 1.0019664 
136.8 33.2 1.044108 
75.6 58.4 1.0525536 
79.2 54.8 1.0600452 
82.8 51.2 1.0652904 
86.4 47.6 1.0709208 
93.6 40.4 1.076274 
93.6 58.4 1.0487412 
97.2 18.8 1.0636812 
97.2 36.8 1.0767204 
97.2 54.8 1.051488 
100.8 51.2 1.0540116 
115.2 18.8 1.047132 
115.2 36.8 1.067724 
122.4 11.6 0.999414 
3.6 58.4 0.8574984 
7.2 36.8 0.8797032 
14.4 29.6 0.9259056 
21.6 40.4 0.9528876 
21.6 58.4 0.9385416 
25.2 36.8 0.97101 
25.2 54.8 0.955152 
28.8 15.2 0.986022 
28.8 33.2 0.9872208 
28.8 51.2 0.970092 
32.4 11.6 0.9820008 
36.0 44.0 1.0008108 
39.6 22.4 1.0253664 
43.2 18.8 1.0306728 
43.2 36.8 1.0274364 
46.8 51.2 1.015362 
50.4 47.6 1.027044 
54.0 8.0 0.9884736 
54.0 26.0 1.0568556 
57.6 22.4 1.0605348 
61.2 0.8 0.5889816 
61.2 18.8 1.0594116 
61.2 36.8 1.054458 
61.2 54.8 1.042398 
64.8 33.2 1.0606356 
68.4 11.6 1.0335204 
68.4 29.6 1.0646928 
68.4 47.6 1.05822 
72.0 8.0 0.976716 
72.0 26.0 1.065708 
72.0 44.0 1.0669464 
75.6 22.4 1.0636416 
75.6 40.4 1.0718964 
79.2 18.8 1.0578384 
82.8 15.2 1.0448496 
86.4 29.6 1.0793664 
93.6 4.4 0.9076644 
93.6 22.4 1.07352 
97.2 0.8 0.5728788 
90.0 8.0 0.9848124 
90.0 26.0 1.0792656 
7.2 54.8 0.8779716 
10.8 33.2 0.9031032 
14.4 47.6 0.916974 
25.2 18.8 0.9777492 
32.4 29.6 1.0036512 
39.6 40.4 1.0134288 
46.8 15.2 1.0287576 
50.4 29.6 1.0512468 
18.0 44.0 0.9359388 
36.0 8.0 0.9605952 
36.0 26.0 1.0159812 
54.0 44.0 1.038114 
10.8 51.2 0.8977428 
21.6 22.4 0.9638172 
39.6 58.4 0.993204 
43.2 0.8 0.5789376 
43.2 54.8 1.0046196 
46.8 33.2 1.0381716 
50.4 11.6 1.0162368 
57.6 4.4 0.9186408 
57.6 40.4 1.0465488 
57.6 58.4 1.0313568 
118.8 15.2 1.0271088 
122.4 29.6 1.057716 
129.6 4.4 0.8722404 
129.6 58.4 1.0477116 
133.2 0.8 0.5411232 
133.2 18.8 1.0230156 
133.2 36.8 1.0506816 
104.4 47.6 1.066608 
111.6 22.4 1.0573668 
111.6 40.4 1.0688436 
108.0 26.0 1.0676088 
108.0 44.0 1.0705392 
111.6 58.4 1.0539396 
64.8 51.2 1.0518192 
64.8 15.2 1.05129 
75.6 4.4 0.917784 
79.2 36.8 1.0770444 
82.8 33.2 1.0787832 
