multiplier_height breeder_height tbr
133.2 36.8 0.7487712 
10.8 51.2 0.90522 
39.6 58.4 0.9167292 
46.8 51.2 0.906516 
118.8 51.2 0.8255088 
126.0 26.0 0.6840684 
133.2 0.8 0.07434792 
136.8 51.2 0.8057988 
97.2 54.8 0.8579124 
3.6 58.4 0.8921448 
36.0 8.0 0.6408 
36.0 44.0 0.9069912 
54.0 8.0 0.5715108 
54.0 26.0 0.8281008 
7.2 54.8 0.899838 
72.0 8.0 0.509436 
72.0 26.0 0.7846092 
72.0 44.0 0.8720712 
126.0 8.0 0.4027608 
126.0 44.0 0.794772 
21.6 22.4 0.8701524 
21.6 40.4 0.9082368 
25.2 18.8 0.843048 
115.2 54.8 0.8400744 
122.4 29.6 0.7208784 
122.4 47.6 0.8077932 
54.0 44.0 0.889344 
28.8 33.2 0.8936064 
28.8 51.2 0.9148968 
32.4 11.6 0.7374708 
32.4 29.6 0.8815104 
39.6 22.4 0.83286 
43.2 0.8 0.15596172 
43.2 18.8 0.795582 
43.2 36.8 0.888444 
43.2 54.8 0.9126756 
46.8 33.2 0.8726904 
50.4 11.6 0.6714396 
50.4 29.6 0.8547768 
50.4 47.6 0.8993916 
57.6 4.4 0.418302 
57.6 22.4 0.7940808 
57.6 58.4 0.9100152 
61.2 0.8 0.1275462 
61.2 18.8 0.7509456 
61.2 36.8 0.8601696 
61.2 54.8 0.9034128 
64.8 15.2 0.6941844 
64.8 51.2 0.8950824 
68.4 11.6 0.6191172 
68.4 29.6 0.814752 
68.4 47.6 0.8840052 
75.6 4.4 0.3686904 
75.6 40.4 0.8558388 
75.6 58.4 0.8946324 
79.2 0.8 0.10754424 
79.2 36.8 0.8387028 
79.2 54.8 0.8865396 
82.8 15.2 0.6412536 
82.8 33.2 0.8154144 
82.8 51.2 0.8754228 
86.4 11.6 0.5658624 
86.4 29.6 0.7879248 
86.4 47.6 0.8640252 
93.6 4.4 0.33025716 
93.6 22.4 0.7165908 
93.6 40.4 0.8281908 
93.6 58.4 0.8705376 
97.2 0.8 0.09373968 
97.2 36.8 0.8080128 
111.6 22.4 0.6771492 
118.8 15.2 0.5696532 
118.8 33.2 0.751158 
122.4 11.6 0.4957272 
129.6 4.4 0.2752722 
129.6 22.4 0.6426036 
133.2 18.8 0.5928156 
136.8 15.2 0.5343732 
32.4 47.6 0.9108864 
64.8 33.2 0.8406288 
75.6 22.4 0.7465068 
79.2 18.8 0.7002288 
97.2 18.8 0.667944 
18.0 44.0 0.9093168 
136.8 33.2 0.7206228 
7.2 36.8 0.8956512 
36.0 26.0 0.8611524 
10.8 33.2 0.8982612 
14.4 29.6 0.895662 
14.4 47.6 0.9084636 
25.2 36.8 0.9021996 
25.2 54.8 0.9164844 
28.8 15.2 0.8012448 
129.6 40.4 0.7726212 
21.6 58.4 0.9153468 
39.6 40.4 0.8987436 
46.8 15.2 0.7437996 
57.6 40.4 0.8763948 
129.6 58.4 0.8351028 
133.2 54.8 0.820098 
