multiplier_height breeder_height tbr
93.6 4.4 0.9794988 
100.8 51.2 1.1029284 
57.6 58.4 1.0753884 
46.8 51.2 1.0602828 
93.6 40.4 1.1272896 
50.4 47.6 1.0727172 
43.2 36.8 1.0762056 
86.4 29.6 1.1349576 
93.6 58.4 1.096416 
115.2 18.8 1.105254 
57.6 40.4 1.0958616 
86.4 47.6 1.1201292 
28.8 15.2 1.046196 
118.8 51.2 1.1042208 
122.4 29.6 1.1123964 
129.6 4.4 0.9396216 
129.6 22.4 1.0940688 
129.6 58.4 1.0969848 
133.2 0.8 0.6329556 
133.2 18.8 1.0802736 
133.2 36.8 1.10358 
133.2 54.8 1.0966104 
136.8 15.2 1.0598328 
136.8 33.2 1.0983636 
79.2 54.8 1.1080728 
97.2 54.8 1.1004804 
108.0 26.0 1.1225592 
108.0 44.0 1.1217096 
111.6 58.4 1.103202 
115.2 36.8 1.1207376 
118.8 15.2 1.0868472 
122.4 11.6 1.0601568 
3.6 58.4 0.8966088 
7.2 36.8 0.9222948 
10.8 51.2 0.9376632 
21.6 22.4 1.0167012 
25.2 36.8 1.0171728 
25.2 54.8 0.9964224 
36.0 8.0 1.0306044 
39.6 22.4 1.0805076 
39.6 58.4 1.035828 
43.2 0.8 0.672858 
43.2 54.8 1.0479348 
46.8 33.2 1.0883736 
50.4 11.6 1.0807632 
57.6 22.4 1.1168316 
61.2 0.8 0.6846336 
61.2 18.8 1.1186964 
61.2 36.8 1.105434 
64.8 15.2 1.1130984 
68.4 11.6 1.0976796 
68.4 29.6 1.1180664 
68.4 47.6 1.1068812 
72.0 8.0 1.0429812 
72.0 26.0 1.1208204 
72.0 44.0 1.1167848 
79.2 0.8 0.6782724 
86.4 11.6 1.0845 
93.6 22.4 1.1313936 
90.0 8.0 1.0492488 
90.0 26.0 1.135944 
7.2 54.8 0.9172008 
10.8 33.2 0.947196 
14.4 29.6 0.9731016 
14.4 47.6 0.9581976 
21.6 40.4 0.9974808 
21.6 58.4 0.9789444 
25.2 18.8 1.0349532 
28.8 33.2 1.035738 
28.8 51.2 1.0126872 
32.4 11.6 1.0463004 
32.4 29.6 1.054224 
32.4 47.6 1.0288908 
39.6 40.4 1.0602792 
43.2 18.8 1.0891908 
46.8 15.2 1.090188 
50.4 29.6 1.1038536 
64.8 33.2 1.1123604 
115.2 54.8 1.1031444 
118.8 33.2 1.116954 
122.4 47.6 1.1029644 
129.6 40.4 1.107648 
136.8 51.2 1.0966068 
18.0 44.0 0.9784116 
36.0 26.0 1.0691568 
36.0 44.0 1.0467612 
54.0 8.0 1.0569204 
54.0 26.0 1.1119428 
54.0 44.0 1.0854972 
126.0 8.0 1.0198404 
126.0 26.0 1.1048904 
126.0 44.0 1.1108556 
57.6 4.4 0.9921996 
104.4 47.6 1.1163276 
111.6 22.4 1.1154096 
111.6 40.4 1.121076 
97.2 0.8 0.6682572 
64.8 51.2 1.0983888 
61.2 54.8 1.0879128 
75.6 4.4 0.9904428 
75.6 22.4 1.1209392 
75.6 40.4 1.1226564 
75.6 58.4 1.0987848 
79.2 18.8 1.1166696 
79.2 36.8 1.1289492 
82.8 15.2 1.1056644 
82.8 33.2 1.1325564 
82.8 51.2 1.11339 
97.2 18.8 1.1226528 
97.2 36.8 1.1291796 
