multiplier_height breeder_height tbr
93.6 58.4 0.8267724 
7.2 36.8 0.8734248 
136.8 15.2 0.4819896 
118.8 51.2 0.7778448 
122.4 29.6 0.6683364 
129.6 4.4 0.23629284 
129.6 22.4 0.5894712 
129.6 58.4 0.7878816 
133.2 0.8 0.060003 
133.2 18.8 0.54009 
133.2 36.8 0.6972876 
133.2 54.8 0.7725024 
136.8 33.2 0.6687504 
79.2 54.8 0.8457768 
97.2 54.8 0.8129196 
104.4 47.6 0.7899588 
108.0 44.0 0.7734636 
111.6 40.4 0.75168 
111.6 58.4 0.8074224 
115.2 36.8 0.7274736 
118.8 15.2 0.5166 
122.4 11.6 0.4445496 
10.8 51.2 0.8840448 
21.6 22.4 0.8307504 
25.2 18.8 0.8001072 
25.2 54.8 0.8881776 
3.6 58.4 0.878166 
36.0 8.0 0.5879664 
36.0 26.0 0.8186004 
39.6 22.4 0.787644 
39.6 58.4 0.8842428 
43.2 0.8 0.12888324 
43.2 54.8 0.8783496 
46.8 33.2 0.82998 
50.4 11.6 0.6193332 
50.4 29.6 0.8105292 
61.2 18.8 0.699768 
61.2 36.8 0.815634 
64.8 15.2 0.6414516 
68.4 11.6 0.5661756 
68.4 29.6 0.7672788 
68.4 47.6 0.8418996 
72.0 8.0 0.457794 
72.0 26.0 0.7343784 
72.0 44.0 0.8285832 
79.2 0.8 0.087615 
79.2 36.8 0.7915356 
86.4 11.6 0.512838 
90.0 8.0 0.4165272 
90.0 26.0 0.7051176 
7.2 54.8 0.8825652 
10.8 33.2 0.871326 
14.4 29.6 0.8644644 
14.4 47.6 0.8839332 
21.6 40.4 0.8762616 
21.6 58.4 0.8891676 
28.8 15.2 0.754488 
28.8 33.2 0.8559036 
28.8 51.2 0.883818 
32.4 11.6 0.6877116 
32.4 29.6 0.8413848 
32.4 47.6 0.877626 
39.6 40.4 0.8600076 
43.2 18.8 0.746766 
43.2 36.8 0.847458 
46.8 15.2 0.69282 
46.8 51.2 0.8701776 
50.4 47.6 0.8604468 
64.8 33.2 0.79389 
115.2 54.8 0.793296 
118.8 33.2 0.7002252 
122.4 47.6 0.759852 
129.6 40.4 0.7223904 
136.8 51.2 0.7565256 
18.0 44.0 0.8818308 
36.0 44.0 0.8709804 
54.0 8.0 0.5188356 
54.0 26.0 0.7814844 
54.0 44.0 0.8484624 
126.0 8.0 0.35521308 
126.0 26.0 0.6318072 
126.0 44.0 0.74493 
25.2 36.8 0.868338 
57.6 4.4 0.3689388 
57.6 22.4 0.74529 
57.6 40.4 0.8332992 
57.6 58.4 0.8722008 
61.2 0.8 0.10465092 
100.8 51.2 0.7985628 
111.6 22.4 0.6243948 
115.2 18.8 0.575964 
64.8 51.2 0.8551188 
61.2 54.8 0.8647056 
75.6 4.4 0.32197644 
75.6 22.4 0.6952356 
75.6 40.4 0.8103564 
75.6 58.4 0.8544348 
79.2 18.8 0.647532 
82.8 15.2 0.5883624 
82.8 33.2 0.7666992 
82.8 51.2 0.8319672 
86.4 29.6 0.737316 
86.4 47.6 0.8186688 
93.6 4.4 0.28667664 
93.6 22.4 0.6639912 
93.6 40.4 0.7817292 
97.2 0.8 0.07613424 
97.2 18.8 0.6150024 
97.2 36.8 0.759078 
