multiplier_height breeder_height tbr
115.2 54.8 1.0498464 
118.8 33.2 1.0383624 
129.6 58.4 1.0355076 
133.2 54.8 1.0288944 
10.8 51.2 0.943272 
21.6 40.4 0.9985428 
28.8 33.2 1.0292076 
43.2 36.8 1.0624788 
46.8 51.2 1.048932 
50.4 47.6 1.05894 
61.2 18.8 1.0728648 
61.2 36.8 1.078884 
68.4 29.6 1.0796688 
68.4 47.6 1.0815084 
82.8 15.2 1.0276884 
86.4 47.6 1.083456 
122.4 11.6 0.9185004 
126.0 8.0 0.8500356 
129.6 22.4 0.9835128 
133.2 18.8 0.954738 
133.2 36.8 1.0168524 
136.8 33.2 1.002726 
136.8 51.2 1.0236888 
3.6 58.4 0.90342 
93.6 4.4 0.821358 
93.6 40.4 1.0801476 
97.2 0.8 0.44181 
97.2 54.8 1.0596204 
118.8 15.2 0.9657072 
90.0 8.0 0.9299088 
36.0 26.0 1.0556316 
7.2 36.8 0.9311256 
72.0 26.0 1.0751076 
72.0 44.0 1.0881576 
10.8 33.2 0.9551952 
126.0 26.0 1.0059408 
126.0 44.0 1.0381392 
14.4 29.6 0.9772956 
25.2 36.8 1.0145448 
25.2 54.8 0.9962568 
118.8 51.2 1.0450476 
122.4 29.6 1.024236 
54.0 44.0 1.068624 
14.4 47.6 0.962622 
21.6 58.4 0.9808128 
28.8 15.2 1.0319256 
32.4 11.6 1.0228392 
32.4 29.6 1.0446732 
39.6 22.4 1.0604484 
43.2 0.8 0.556668 
50.4 11.6 1.032426 
57.6 22.4 1.0806588 
61.2 0.8 0.5236092 
61.2 54.8 1.070568 
64.8 51.2 1.077084 
68.4 11.6 1.0256616 
75.6 4.4 0.8636364 
75.6 40.4 1.0887084 
75.6 58.4 1.0754316 
79.2 0.8 0.4808016 
79.2 36.8 1.0899828 
79.2 54.8 1.0804716 
82.8 51.2 1.0817028 
86.4 11.6 0.9892692 
86.4 29.6 1.080558 
93.6 22.4 1.0599552 
93.6 58.4 1.0611432 
97.2 36.8 1.0762128 
111.6 22.4 1.0243296 
122.4 47.6 1.0384416 
133.2 0.8 0.371646 
32.4 47.6 1.023066 
39.6 40.4 1.050192 
46.8 15.2 1.0537056 
57.6 40.4 1.0741104 
64.8 33.2 1.0806948 
75.6 22.4 1.0653876 
79.2 18.8 1.0524312 
82.8 33.2 1.086786 
97.2 18.8 1.0392588 
18.0 44.0 0.9816084 
72.0 8.0 0.9542592 
28.8 51.2 1.0096956 
43.2 54.8 1.0388628 
57.6 4.4 0.898254 
64.8 15.2 1.0555164 
129.6 4.4 0.729486 
136.8 15.2 0.9185184 
36.0 8.0 0.9928296 
7.2 54.8 0.922734 
21.6 22.4 1.014282 
129.6 40.4 1.0288224 
36.0 44.0 1.0388808 
54.0 8.0 0.9919044 
54.0 26.0 1.083654 
25.2 18.8 1.0271844 
39.6 58.4 1.02924 
43.2 18.8 1.0609776 
46.8 33.2 1.0697148 
50.4 29.6 1.080108 
57.6 58.4 1.0606356 
