multiplier_height breeder_height tbr
90.0 26.0 1.1893824 
32.4 11.6 1.1376324 
64.8 15.2 1.180872 
108.0 8.0 1.071648 
115.2 36.8 1.1620944 
90.0 44.0 1.173222 
75.6 40.4 1.1735172 
97.2 36.8 1.1788992 
21.6 22.4 1.0877796 
21.6 40.4 1.0486692 
25.2 36.8 1.0707588 
28.8 15.2 1.129878 
28.8 33.2 1.0917432 
32.4 29.6 1.1138184 
36.0 26.0 1.1334888 
36.0 44.0 1.0945908 
39.6 22.4 1.1492496 
43.2 0.8 0.7815888 
43.2 18.8 1.1601288 
43.2 36.8 1.1299572 
43.2 54.8 1.0925604 
46.8 33.2 1.145484 
50.4 11.6 1.1615796 
50.4 29.6 1.1627676 
50.4 47.6 1.12221 
54.0 8.0 1.1414952 
54.0 26.0 1.173906 
57.6 22.4 1.1817072 
61.2 0.8 0.753642 
61.2 18.8 1.1853504 
61.2 36.8 1.1592648 
64.8 51.2 1.1445696 
68.4 11.6 1.1663928 
68.4 29.6 1.1746152 
68.4 47.6 1.1548728 
72.0 26.0 1.1787876 
72.0 44.0 1.1655036 
79.2 0.8 0.70776 
79.2 36.8 1.1821536 
79.2 54.8 1.1531016 
82.8 15.2 1.1633472 
86.4 11.6 1.1382732 
86.4 29.6 1.1869236 
86.4 47.6 1.1686644 
93.6 4.4 1.0119348 
93.6 22.4 1.1842236 
93.6 40.4 1.176642 
93.6 58.4 1.1410848 
97.2 0.8 0.6635844 
90.0 8.0 1.0962216 
100.8 15.2 1.1543112 
100.8 33.2 1.1774448 
100.8 51.2 1.1467728 
108.0 26.0 1.1672748 
108.0 44.0 1.1663748 
115.2 0.8 0.6183288 
115.2 18.8 1.1418084 
122.4 47.6 1.1428236 
129.6 40.4 1.1432664 
129.6 4.4 0.9196668 
133.2 36.8 1.1363292 
136.8 15.2 1.0725372 
10.8 51.2 0.977256 
46.8 51.2 1.1068344 
75.6 58.4 1.1431872 
82.8 51.2 1.159758 
133.2 0.8 0.5728356 
97.2 54.8 1.1446272 
126.0 26.0 1.138698 
118.8 33.2 1.1574216 
122.4 11.6 1.0808136 
3.6 58.4 0.9286668 
7.2 36.8 0.9716904 
10.8 33.2 1.0026756 
126.0 8.0 1.0254492 
126.0 44.0 1.1489112 
25.2 18.8 1.112652 
25.2 54.8 1.0377936 
115.2 54.8 1.1443716 
118.8 51.2 1.1432232 
61.2 54.8 1.133064 
118.8 15.2 1.1173608 
122.4 29.6 1.1495952 
129.6 22.4 1.1227716 
129.6 58.4 1.1341836 
133.2 54.8 1.1316888 
36.0 8.0 1.1320308 
54.0 44.0 1.136934 
72.0 8.0 1.1138544 
14.4 29.6 1.031886 
14.4 47.6 1.0017756 
21.6 58.4 1.01817 
32.4 47.6 1.074528 
57.6 40.4 1.1475144 
64.8 33.2 1.1684592 
75.6 4.4 1.0498752 
75.6 22.4 1.1786688 
79.2 18.8 1.175832 
97.2 18.8 1.1731392 
136.8 33.2 1.1279412 
39.6 40.4 1.1122848 
46.8 15.2 1.1665584 
82.8 33.2 1.1856564 
18.0 44.0 1.025334 
7.2 54.8 0.9534168 
28.8 51.2 1.0562976 
133.2 18.8 1.101132 
39.6 58.4 1.07775 
57.6 4.4 1.0779372 
57.6 58.4 1.1191248 
136.8 51.2 1.1307132 
