Enrichment multiplier_height breeder_height tbr
70.0 57.6 22.4 1.1706768 
70.0 64.8 33.2 1.1594376 
70.0 72.0 44.0 1.158786 
70.0 79.2 18.8 1.1617992 
70.0 86.4 47.6 1.1603268 
70.0 97.2 18.8 1.1578428 
70.0 50.4 47.6 1.1170224 
70.0 68.4 47.6 1.1490876 
70.0 93.6 4.4 0.9878328 
70.0 54.0 26.0 1.1644524 
70.0 32.4 47.6 1.071198 
70.0 93.6 40.4 1.1667204 
70.0 57.6 40.4 1.1414556 
70.0 75.6 4.4 1.026594 
70.0 43.2 36.8 1.1251836 
70.0 39.6 22.4 1.140372 
70.0 50.4 11.6 1.1469204 
70.0 61.2 18.8 1.1732364 
70.0 75.6 22.4 1.16631 
70.0 28.8 33.2 1.0869264 
70.0 82.8 33.2 1.1755836 
70.0 97.2 0.8 0.6333372 
70.0 90.0 26.0 1.1771244 
80.0 90.0 26.0 1.1893824 
70.0 21.6 40.4 1.0455912 
70.0 39.6 40.4 1.1075436 
70.0 46.8 15.2 1.1545416 
70.0 61.2 36.8 1.151658 
70.0 68.4 29.6 1.1646648 
70.0 79.2 0.8 0.6772032 
90.0 39.6 22.4 1.1555136 
70.0 82.8 15.2 1.1473236 
70.0 90.0 8.0 1.0754928 
70.0 115.2 54.8 1.1350404 
70.0 36.0 44.0 1.0908072 
70.0 100.8 51.2 1.1379564 
70.0 115.2 18.8 1.12464 
70.0 32.4 29.6 1.1079576 
70.0 108.0 44.0 1.1552256 
70.0 21.6 58.4 1.017468 
70.0 61.2 0.8 0.722862 
70.0 100.8 15.2 1.1371788 
70.0 14.4 47.6 1.000944 
70.0 36.0 8.0 1.1162952 
70.0 14.4 29.6 1.0290456 
70.0 54.0 44.0 1.1306448 
70.0 72.0 8.0 1.0942596 
70.0 28.8 51.2 1.0539864 
70.0 21.6 22.4 1.0809828 
70.0 7.2 54.8 0.954072 
70.0 28.8 15.2 1.1195856 
80.0 32.4 11.6 1.1376324 
70.0 43.2 18.8 1.1502 
70.0 43.2 54.8 1.0895616 
70.0 50.4 29.6 1.1549484 
70.0 54.0 8.0 1.1234628 
70.0 64.8 15.2 1.1672928 
80.0 64.8 15.2 1.180872 
70.0 68.4 11.6 1.1498076 
70.0 79.2 54.8 1.1467836 
70.0 86.4 29.6 1.1755584 
70.0 93.6 22.4 1.1703132 
70.0 93.6 58.4 1.1336112 
70.0 100.8 33.2 1.1657304 
70.0 108.0 8.0 1.0498464 
80.0 108.0 8.0 1.071648 
70.0 115.2 0.8 0.589032 
70.0 115.2 36.8 1.1498688 
80.0 115.2 36.8 1.1620944 
70.0 90.0 44.0 1.1644956 
80.0 90.0 44.0 1.173222 
70.0 18.0 44.0 1.0234188 
70.0 36.0 26.0 1.126224 
70.0 57.6 4.4 1.0559952 
70.0 72.0 26.0 1.1671812 
70.0 7.2 36.8 0.9706824 
70.0 108.0 26.0 1.1529036 
70.0 25.2 36.8 1.067508 
70.0 43.2 0.8 0.7519428 
70.0 46.8 33.2 1.1390292 
70.0 57.6 58.4 1.1154312 
70.0 64.8 51.2 1.1392812 
70.0 75.6 40.4 1.1650284 
80.0 75.6 40.4 1.1735172 
70.0 79.2 36.8 1.1724624 
70.0 86.4 11.6 1.1205648 
70.0 97.2 36.8 1.1680056 
80.0 97.2 36.8 1.1788992 
70.0 118.8 15.2 1.0986408 
70.0 122.4 11.6 1.0605312 
70.0 126.0 8.0 1.0034496 
70.0 126.0 44.0 1.1365128 
70.0 129.6 40.4 1.13031 
70.0 133.2 36.8 1.122426 
90.0 7.2 36.8 0.970974 
90.0 7.2 54.8 0.9506916 
90.0 14.4 29.6 1.0341504 
90.0 14.4 47.6 1.0006236 
90.0 18.0 44.0 1.0248444 
80.0 21.6 22.4 1.0877796 
80.0 21.6 40.4 1.0486692 
90.0 21.6 58.4 1.0173708 
80.0 25.2 36.8 1.0707588 
80.0 28.8 15.2 1.129878 
80.0 28.8 33.2 1.0917432 
90.0 28.8 51.2 1.056726 
80.0 32.4 29.6 1.1138184 
90.0 32.4 47.6 1.075572 
90.0 36.0 8.0 1.1450664 
80.0 36.0 26.0 1.1334888 
80.0 36.0 44.0 1.0945908 
80.0 39.6 22.4 1.1492496 
90.0 39.6 40.4 1.11537 
80.0 43.2 0.8 0.7815888 
80.0 43.2 18.8 1.1601288 
80.0 43.2 36.8 1.1299572 
80.0 43.2 54.8 1.0925604 
90.0 46.8 15.2 1.1761308 
80.0 46.8 33.2 1.145484 
80.0 50.4 11.6 1.1615796 
80.0 50.4 29.6 1.1627676 
80.0 50.4 47.6 1.12221 
90.0 43.2 54.8 1.0944648 
80.0 54.0 8.0 1.1414952 
80.0 54.0 26.0 1.173906 
90.0 54.0 44.0 1.1407752 
90.0 57.6 4.4 1.0961172 
80.0 57.6 22.4 1.1817072 
90.0 57.6 40.4 1.1533068 
90.0 57.6 58.4 1.12176 
80.0 61.2 0.8 0.753642 
80.0 61.2 18.8 1.1853504 
80.0 61.2 36.8 1.1592648 
90.0 64.8 15.2 1.192482 
90.0 64.8 33.2 1.174842 
80.0 64.8 51.2 1.1445696 
80.0 68.4 11.6 1.1663928 
80.0 68.4 29.6 1.1746152 
80.0 68.4 47.6 1.1548728 
90.0 68.4 47.6 1.1591064 
90.0 72.0 8.0 1.1297736 
100.0 72.0 8.0 1.1435292 
80.0 72.0 26.0 1.1787876 
90.0 72.0 26.0 1.1875608 
80.0 72.0 44.0 1.1655036 
90.0 75.6 4.4 1.0695996 
90.0 75.6 22.4 1.1890404 
90.0 75.6 40.4 1.1796444 
80.0 79.2 0.8 0.70776 
90.0 79.2 0.8 0.7345152 
90.0 79.2 18.8 1.187046 
80.0 79.2 36.8 1.1821536 
80.0 79.2 54.8 1.1531016 
80.0 82.8 15.2 1.1633472 
90.0 82.8 33.2 1.1936808 
80.0 86.4 11.6 1.1382732 
80.0 86.4 29.6 1.1869236 
80.0 86.4 47.6 1.1686644 
80.0 93.6 4.4 1.0119348 
80.0 93.6 22.4 1.1842236 
80.0 93.6 40.4 1.176642 
80.0 93.6 58.4 1.1410848 
80.0 97.2 0.8 0.6635844 
90.0 97.2 0.8 0.6899364 
90.0 97.2 18.8 1.1860848 
90.0 97.2 36.8 1.1871036 
80.0 90.0 8.0 1.0962216 
90.0 90.0 26.0 1.1994516 
90.0 90.0 44.0 1.1796768 
80.0 100.8 15.2 1.1543112 
80.0 100.8 33.2 1.1774448 
80.0 100.8 51.2 1.1467728 
90.0 100.8 51.2 1.1536596 
90.0 108.0 8.0 1.0898964 
80.0 108.0 26.0 1.1672748 
80.0 108.0 44.0 1.1663748 
100.0 108.0 44.0 1.1817432 
80.0 115.2 0.8 0.6183288 
80.0 115.2 18.8 1.1418084 
90.0 115.2 36.8 1.1722032 
90.0 115.2 54.8 1.1519784 
60.0 111.6 4.4 0.9159156 
100.0 28.8 33.2 1.0963476 
10.0 32.4 47.6 0.9064044 
40.0 32.4 47.6 1.044216 
100.0 90.0 26.0 1.2079908 
100.0 90.0 44.0 1.1851596 
100.0 36.0 26.0 1.1426184 
100.0 36.0 44.0 1.0974564 
100.0 54.0 8.0 1.1691504 
100.0 72.0 26.0 1.1946888 
90.0 108.0 26.0 1.1793888 
100.0 21.6 22.4 1.0949508 
90.0 25.2 36.8 1.0729368 
100.0 28.8 15.2 1.1442708 
100.0 28.8 51.2 1.0560528 
100.0 39.6 40.4 1.1165364 
100.0 43.2 0.8 0.8302248 
100.0 43.2 18.8 1.1751444 
100.0 43.2 36.8 1.1361384 
100.0 46.8 15.2 1.1846664 
100.0 46.8 33.2 1.1533968 
90.0 50.4 11.6 1.1737944 
100.0 50.4 29.6 1.172718 
100.0 50.4 47.6 1.12734 
100.0 57.6 4.4 1.1123028 
100.0 57.6 58.4 1.122948 
100.0 61.2 0.8 0.8037864 
100.0 61.2 18.8 1.2031344 
100.0 64.8 51.2 1.1498796 
100.0 68.4 11.6 1.191528 
100.0 68.4 29.6 1.1884176 
90.0 79.2 36.8 1.18863 
100.0 79.2 54.8 1.1605536 
90.0 82.8 15.2 1.1769012 
100.0 82.8 15.2 1.1877624 
100.0 86.4 11.6 1.1665332 
100.0 86.4 29.6 1.2034764 
100.0 86.4 47.6 1.1792124 
100.0 93.6 4.4 1.0507752 
100.0 93.6 22.4 1.2054492 
100.0 93.6 40.4 1.1896128 
100.0 93.6 58.4 1.1506212 
100.0 97.2 36.8 1.193994 
100.0 100.8 15.2 1.181196 
100.0 100.8 33.2 1.194588 
100.0 115.2 0.8 0.6672672 
100.0 115.2 18.8 1.168776 
70.0 122.4 29.6 1.1349504 
70.0 133.2 54.8 1.1203272 
30.0 115.2 54.8 1.0498464 
70.0 118.8 51.2 1.133514 
100.0 118.8 15.2 1.145952 
30.0 118.8 33.2 1.0383624 
70.0 118.8 33.2 1.1436156 
0.0 115.2 54.8 0.05023872 
90.0 118.8 33.2 1.1685672 
20.0 118.8 51.2 0.9918396 
90.0 118.8 51.2 1.1515752 
10.0 122.4 11.6 0.7070112 
90.0 122.4 11.6 1.0980648 
20.0 122.4 29.6 0.9623088 
100.0 122.4 29.6 1.1718252 
80.0 122.4 47.6 1.1428236 
10.0 126.0 8.0 0.6291612 
80.0 129.6 40.4 1.1432664 
70.0 126.0 26.0 1.1231028 
90.0 126.0 8.0 1.0447668 
60.0 79.2 54.8 1.1376108 
20.0 126.0 44.0 0.9817956 
80.0 129.6 4.4 0.9196668 
10.0 129.6 22.4 0.7939296 
90.0 129.6 22.4 1.1369592 
20.0 129.6 40.4 0.9701928 
100.0 129.6 40.4 1.162206 
30.0 129.6 58.4 1.0355076 
70.0 129.6 58.4 1.1240496 
90.0 129.6 58.4 1.1427552 
20.0 133.2 0.8 0.29677752 
100.0 133.2 0.8 0.6196572 
10.0 133.2 36.8 0.8442504 
90.0 133.2 36.8 1.1475504 
80.0 133.2 36.8 1.1363292 
30.0 133.2 54.8 1.0288944 
20.0 133.2 54.8 0.974952 
100.0 133.2 54.8 1.1476224 
80.0 136.8 15.2 1.0725372 
10.0 136.8 33.2 0.82593 
90.0 136.8 33.2 1.1398968 
10.0 3.6 58.4 0.8061192 
50.0 3.6 58.4 0.9269388 
60.0 3.6 58.4 0.9300888 
90.0 3.6 58.4 0.9259632 
20.0 7.2 36.8 0.896868 
20.0 7.2 54.8 0.8931024 
20.0 10.8 33.2 0.9188784 
70.0 10.8 33.2 1.0005156 
30.0 10.8 51.2 0.943272 
80.0 10.8 51.2 0.977256 
40.0 14.4 29.6 1.0003176 
20.0 14.4 47.6 0.929664 
20.0 18.0 44.0 0.9461952 
30.0 21.6 40.4 0.9985428 
100.0 21.6 40.4 1.048428 
20.0 21.6 58.4 0.9473688 
10.0 25.2 18.8 0.8726724 
50.0 25.2 18.8 1.0784772 
60.0 25.2 18.8 1.0933596 
20.0 25.2 36.8 0.9752868 
100.0 25.2 36.8 1.0733256 
10.0 25.2 54.8 0.8881812 
90.0 25.2 54.8 1.0377468 
20.0 28.8 15.2 0.976248 
30.0 28.8 33.2 1.0292076 
20.0 28.8 33.2 0.9877896 
90.0 28.8 33.2 1.0949544 
10.0 28.8 51.2 0.8976132 
70.0 32.4 11.6 1.1259828 
100.0 32.4 11.6 1.1572344 
10.0 32.4 29.6 0.9079992 
100.0 32.4 29.6 1.1210544 
20.0 32.4 47.6 0.9855036 
100.0 32.4 47.6 1.0758744 
10.0 36.0 8.0 0.790182 
10.0 36.0 26.0 0.9093168 
100.0 36.0 8.0 1.1558052 
100.0 39.6 22.4 1.1608524 
20.0 39.6 40.4 1.0090476 
40.0 39.6 58.4 1.049886 
10.0 43.2 0.8 0.31509072 
30.0 43.2 36.8 1.0624788 
100.0 43.2 54.8 1.0948896 
20.0 46.8 15.2 0.9930744 
0.0 46.8 51.2 0.07490412 
30.0 46.8 51.2 1.048932 
80.0 46.8 51.2 1.1068344 
10.0 50.4 29.6 0.9323172 
30.0 50.4 47.6 1.05894 
90.0 54.0 26.0 1.1808468 
100.0 54.0 26.0 1.1864628 
20.0 54.0 44.0 1.0256112 
20.0 57.6 4.4 0.8144352 
0.0 57.6 4.4 0.009798444 
100.0 57.6 22.4 1.1966976 
20.0 57.6 40.4 1.0284336 
20.0 57.6 58.4 1.0215756 
30.0 61.2 18.8 1.0728648 
30.0 61.2 36.8 1.078884 
100.0 61.2 36.8 1.1690928 
70.0 61.2 54.8 1.1281824 
20.0 61.2 54.8 1.0296396 
90.0 61.2 54.8 1.1353824 
20.0 64.8 15.2 0.991602 
20.0 64.8 33.2 1.0307016 
10.0 64.8 51.2 0.945396 
20.0 64.8 51.2 1.0345464 
30.0 68.4 29.6 1.0796688 
30.0 68.4 47.6 1.0815084 
100.0 68.4 47.6 1.1620908 
20.0 72.0 8.0 0.8780472 
10.0 72.0 26.0 0.909324 
20.0 72.0 26.0 1.0189548 
90.0 72.0 44.0 1.171224 
100.0 72.0 44.0 1.1760012 
20.0 75.6 4.4 0.777672 
20.0 75.6 22.4 1.0065348 
20.0 75.6 40.4 1.0398888 
20.0 75.6 58.4 1.0315476 
80.0 75.6 58.4 1.1431872 
90.0 75.6 58.4 1.1471796 
10.0 79.2 0.8 0.25621452 
100.0 79.2 0.8 0.758322 
20.0 79.2 18.8 0.9889704 
10.0 79.2 36.8 0.9359712 
100.0 79.2 36.8 1.1939436 
10.0 79.2 54.8 0.9439596 
20.0 82.8 15.2 0.9601164 
30.0 82.8 15.2 1.0276884 
20.0 82.8 33.2 1.0327212 
20.0 82.8 51.2 1.03518 
80.0 82.8 51.2 1.159758 
90.0 82.8 51.2 1.1657016 
10.0 86.4 11.6 0.7817112 
30.0 86.4 47.6 1.083456 
60.0 115.2 54.8 1.121868 
40.0 118.8 15.2 1.0139256 
10.0 118.8 33.2 0.8655048 
40.0 118.8 51.2 1.0784268 
30.0 122.4 11.6 0.9185004 
40.0 122.4 29.6 1.0650384 
20.0 122.4 47.6 0.9832392 
100.0 122.4 47.6 1.1584836 
30.0 126.0 8.0 0.8500356 
40.0 126.0 26.0 1.048338 
40.0 126.0 44.0 1.0751184 
20.0 129.6 4.4 0.6457428 
100.0 129.6 4.4 0.9600588 
30.0 129.6 22.4 0.9835128 
40.0 129.6 40.4 1.0665828 
10.0 129.6 58.4 0.8821692 
80.0 133.2 0.8 0.5728356 
30.0 133.2 18.8 0.954738 
100.0 133.2 18.8 1.1292552 
30.0 133.2 36.8 1.0168524 
0.0 136.8 51.2 0.04323636 
10.0 136.8 51.2 0.8631396 
20.0 136.8 51.2 0.9681876 
40.0 133.2 54.8 1.0638216 
20.0 136.8 15.2 0.8466516 
100.0 136.8 15.2 1.1034792 
30.0 136.8 33.2 1.002726 
30.0 136.8 51.2 1.0236888 
100.0 136.8 51.2 1.1475144 
30.0 3.6 58.4 0.90342 
70.0 3.6 58.4 0.9303408 
50.0 7.2 36.8 0.9616932 
60.0 7.2 36.8 0.9683568 
30.0 93.6 4.4 0.821358 
30.0 93.6 40.4 1.0801476 
30.0 97.2 0.8 0.44181 
100.0 97.2 0.8 0.7135488 
100.0 90.0 8.0 1.1292804 
20.0 97.2 18.8 0.9723456 
20.0 97.2 36.8 1.0216044 
30.0 97.2 54.8 1.0596204 
40.0 97.2 54.8 1.090206 
80.0 97.2 54.8 1.1446272 
10.0 90.0 8.0 0.7072848 
10.0 90.0 26.0 0.8987724 
20.0 90.0 26.0 1.0140372 
100.0 100.8 51.2 1.158948 
100.0 108.0 8.0 1.1057616 
100.0 108.0 26.0 1.1890188 
10.0 111.6 22.4 0.8363448 
60.0 115.2 0.8 0.55494 
40.0 126.0 8.0 0.9041076 
80.0 126.0 26.0 1.138698 
10.0 115.2 54.8 0.8988444 
60.0 118.8 33.2 1.1270736 
80.0 118.8 33.2 1.1574216 
30.0 118.8 15.2 0.9657072 
60.0 122.4 11.6 1.0362672 
80.0 122.4 11.6 1.0808136 
90.0 122.4 29.6 1.1615724 
30.0 90.0 8.0 0.9299088 
40.0 90.0 8.0 0.9823032 
50.0 90.0 8.0 1.0202652 
60.0 90.0 8.0 1.050768 
40.0 90.0 26.0 1.1130264 
10.0 18.0 44.0 0.8703 
40.0 18.0 44.0 1.0011708 
20.0 3.6 58.4 0.8739216 
40.0 3.6 58.4 0.9195552 
80.0 3.6 58.4 0.9286668 
100.0 3.6 58.4 0.9220104 
40.0 36.0 8.0 1.0390068 
30.0 36.0 26.0 1.0556316 
50.0 36.0 26.0 1.10313 
60.0 36.0 26.0 1.1162988 
10.0 36.0 44.0 0.9162612 
40.0 36.0 44.0 1.0605348 
10.0 54.0 8.0 0.7795188 
40.0 54.0 8.0 1.03977 
10.0 54.0 26.0 0.92619 
40.0 54.0 26.0 1.1147256 
40.0 54.0 44.0 1.0943892 
10.0 7.2 36.8 0.8201016 
30.0 7.2 36.8 0.9311256 
80.0 7.2 36.8 0.9716904 
100.0 7.2 54.8 0.9469872 
10.0 72.0 8.0 0.737514 
40.0 72.0 8.0 1.004958 
50.0 72.0 8.0 1.0414872 
60.0 72.0 8.0 1.0705212 
30.0 72.0 26.0 1.0751076 
40.0 72.0 26.0 1.1102184 
50.0 72.0 26.0 1.1344896 
60.0 72.0 26.0 1.1534472 
30.0 72.0 44.0 1.0881576 
10.0 72.0 44.0 0.9450108 
40.0 72.0 44.0 1.1163888 
50.0 72.0 44.0 1.1356452 
60.0 72.0 44.0 1.1492928 
30.0 10.8 33.2 0.9551952 
80.0 10.8 33.2 1.0026756 
90.0 10.8 33.2 1.0031652 
10.0 10.8 51.2 0.8403588 
20.0 10.8 51.2 0.9109944 
40.0 10.8 51.2 0.9610056 
90.0 10.8 51.2 0.975366 
60.0 108.0 8.0 1.0241532 
90.0 108.0 44.0 1.174428 
20.0 126.0 8.0 0.770616 
0.0 126.0 8.0 0.009413856 
60.0 126.0 8.0 0.9769176 
80.0 126.0 8.0 1.0254492 
100.0 126.0 8.0 1.061424 
10.0 126.0 26.0 0.8209944 
20.0 126.0 26.0 0.9412848 
60.0 126.0 26.0 1.1039436 
30.0 126.0 26.0 1.0059408 
90.0 126.0 26.0 1.1517768 
100.0 126.0 26.0 1.1624688 
10.0 126.0 44.0 0.8743104 
30.0 126.0 44.0 1.0381392 
60.0 126.0 44.0 1.1207196 
90.0 126.0 44.0 1.1580228 
80.0 126.0 44.0 1.1489112 
100.0 126.0 44.0 1.1662596 
100.0 10.8 51.2 0.9728172 
20.0 14.4 29.6 0.939096 
30.0 14.4 29.6 0.9772956 
10.0 14.4 47.6 0.8558856 
50.0 14.4 47.6 0.9920052 
60.0 14.4 47.6 0.9981108 
10.0 21.6 22.4 0.8720424 
40.0 21.6 22.4 1.0423368 
90.0 21.6 22.4 1.0919016 
10.0 21.6 40.4 0.8815932 
40.0 21.6 40.4 1.019142 
10.0 21.6 58.4 0.8754192 
50.0 21.6 58.4 1.0084536 
60.0 21.6 58.4 1.0151028 
20.0 25.2 18.8 0.9769644 
70.0 25.2 18.8 1.1041416 
80.0 25.2 18.8 1.112652 
10.0 25.2 36.8 0.89127 
30.0 25.2 36.8 1.0145448 
20.0 25.2 54.8 0.962694 
30.0 25.2 54.8 0.9962568 
70.0 25.2 54.8 1.0361844 
80.0 25.2 54.8 1.0377936 
100.0 25.2 54.8 1.036332 
40.0 115.2 54.8 1.0824624 
80.0 115.2 54.8 1.1443716 
10.0 118.8 15.2 0.7626996 
30.0 118.8 51.2 1.0450476 
80.0 118.8 51.2 1.1432232 
100.0 118.8 51.2 1.1582748 
20.0 122.4 11.6 0.8434368 
100.0 122.4 11.6 1.1130408 
30.0 122.4 29.6 1.024236 
10.0 122.4 47.6 0.8787744 
40.0 122.4 47.6 1.0737468 
70.0 122.4 47.6 1.1316312 
90.0 122.4 47.6 1.1517588 
30.0 54.0 44.0 1.068624 
50.0 7.2 54.8 0.9484776 
60.0 7.2 54.8 0.9528264 
30.0 14.4 47.6 0.962622 
30.0 21.6 58.4 0.9808128 
30.0 28.8 15.2 1.0319256 
10.0 28.8 33.2 0.8993592 
40.0 28.8 33.2 1.0536228 
40.0 28.8 51.2 1.0300608 
20.0 28.8 51.2 0.9746532 
20.0 32.4 11.6 0.9604836 
30.0 32.4 11.6 1.0228392 
40.0 32.4 11.6 1.0619568 
30.0 32.4 29.6 1.0446732 
40.0 32.4 29.6 1.0706976 
50.0 32.4 29.6 1.0883556 
60.0 32.4 29.6 1.099872 
50.0 32.4 47.6 1.0573452 
60.0 32.4 47.6 1.0660968 
30.0 39.6 22.4 1.0604484 
10.0 39.6 22.4 0.9056088 
40.0 39.6 22.4 1.0919916 
50.0 39.6 22.4 1.1131848 
60.0 39.6 22.4 1.12887 
40.0 39.6 40.4 1.0739592 
10.0 39.6 58.4 0.9157644 
50.0 39.6 58.4 1.0625904 
60.0 39.6 58.4 1.0706508 
70.0 39.6 58.4 1.0757448 
100.0 39.6 58.4 1.078146 
30.0 43.2 0.8 0.556668 
40.0 43.2 0.8 0.6237108 
50.0 43.2 0.8 0.6755148 
60.0 43.2 0.8 0.7173108 
10.0 43.2 18.8 0.8951292 
40.0 43.2 18.8 1.0952928 
90.0 43.2 18.8 1.1682612 
10.0 43.2 36.8 0.9279828 
40.0 43.2 36.8 1.0886652 
90.0 43.2 36.8 1.1344788 
40.0 43.2 54.8 1.0609776 
10.0 43.2 54.8 0.9214596 
40.0 46.8 15.2 1.091646 
40.0 46.8 33.2 1.0977444 
10.0 46.8 33.2 0.9289188 
10.0 46.8 51.2 0.9266796 
40.0 46.8 51.2 1.0720908 
50.0 46.8 51.2 1.086894 
60.0 46.8 51.2 1.096488 
90.0 46.8 51.2 1.1092572 
100.0 46.8 51.2 1.1102688 
30.0 50.4 11.6 1.032426 
40.0 50.4 11.6 1.0753776 
40.0 50.4 29.6 1.109862 
90.0 50.4 29.6 1.169064 
10.0 50.4 47.6 0.9317484 
40.0 50.4 47.6 1.0833012 
10.0 57.6 4.4 0.6603336 
40.0 57.6 4.4 0.9544428 
30.0 57.6 22.4 1.0806588 
10.0 57.6 22.4 0.9134568 
40.0 57.6 22.4 1.115136 
50.0 57.6 22.4 1.139832 
60.0 57.6 22.4 1.1574792 
10.0 57.6 40.4 0.9348732 
50.0 57.6 40.4 1.1193336 
60.0 57.6 40.4 1.1329452 
30.0 61.2 0.8 0.5236092 
10.0 61.2 0.8 0.28630584 
40.0 61.2 0.8 0.5916456 
50.0 61.2 0.8 0.6442668 
60.0 61.2 0.8 0.6870924 
10.0 61.2 18.8 0.8953488 
40.0 61.2 18.8 1.11042 
10.0 61.2 36.8 0.93357 
40.0 61.2 36.8 1.1075544 
10.0 61.2 54.8 0.9436896 
30.0 61.2 54.8 1.070568 
40.0 61.2 54.8 1.094436 
80.0 61.2 54.8 1.133064 
100.0 61.2 54.8 1.1370492 
40.0 64.8 15.2 1.0973844 
100.0 64.8 15.2 1.2028356 
40.0 64.8 33.2 1.111662 
50.0 64.8 33.2 1.1329848 
60.0 64.8 33.2 1.1486232 
30.0 64.8 51.2 1.077084 
40.0 64.8 51.2 1.1030004 
50.0 64.8 51.2 1.1202768 
60.0 64.8 51.2 1.1315916 
20.0 68.4 11.6 0.9549648 
30.0 68.4 11.6 1.0256616 
10.0 68.4 11.6 0.8230464 
40.0 68.4 11.6 1.0713816 
50.0 68.4 11.6 1.1037024 
60.0 68.4 11.6 1.1295252 
90.0 68.4 11.6 1.1799432 
10.0 68.4 29.6 0.9220824 
40.0 68.4 29.6 1.112688 
50.0 68.4 29.6 1.1355552 
60.0 68.4 29.6 1.1522916 
10.0 68.4 47.6 0.9451764 
40.0 68.4 47.6 1.109214 
50.0 68.4 47.6 1.1272032 
60.0 68.4 47.6 1.1397564 
0.0 75.6 4.4 0.007999056 
10.0 75.6 4.4 0.6223068 
40.0 75.6 4.4 0.921294 
50.0 75.6 4.4 0.9647604 
60.0 75.6 4.4 0.9990612 
30.0 75.6 4.4 0.8636364 
10.0 75.6 22.4 0.8920764 
40.0 75.6 22.4 1.1035512 
50.0 75.6 22.4 1.130346 
60.0 75.6 22.4 1.1506176 
10.0 75.6 40.4 0.9408348 
30.0 75.6 40.4 1.0887084 
40.0 75.6 40.4 1.1188008 
100.0 75.6 40.4 1.1847276 
10.0 75.6 58.4 0.9436536 
30.0 75.6 58.4 1.0754316 
100.0 75.6 58.4 1.1492676 
30.0 79.2 0.8 0.4808016 
40.0 79.2 0.8 0.5470164 
50.0 79.2 0.8 0.59904 
60.0 79.2 0.8 0.6418008 
10.0 79.2 18.8 0.867978 
40.0 79.2 18.8 1.0926828 
50.0 79.2 18.8 1.121328 
60.0 79.2 18.8 1.1440944 
20.0 79.2 36.8 1.0386864 
30.0 79.2 36.8 1.0899828 
40.0 79.2 36.8 1.1220264 
50.0 79.2 36.8 1.1441808 
60.0 79.2 36.8 1.1605176 
100.0 79.2 18.8 1.1968128 
20.0 79.2 54.8 1.0355364 
30.0 79.2 54.8 1.0804716 
10.0 82.8 15.2 0.8319744 
40.0 82.8 15.2 1.0721556 
50.0 82.8 15.2 1.1038608 
60.0 82.8 15.2 1.1274012 
0.0 82.8 33.2 0.0438426 
10.0 82.8 33.2 0.9264312 
40.0 82.8 33.2 1.1217672 
50.0 82.8 33.2 1.1446488 
60.0 82.8 33.2 1.1623392 
100.0 82.8 33.2 1.1999124 
10.0 82.8 51.2 0.9408924 
30.0 82.8 51.2 1.0817028 
100.0 82.8 51.2 1.1694528 
30.0 86.4 11.6 0.9892692 
40.0 86.4 11.6 1.036764 
50.0 86.4 11.6 1.072008 
60.0 86.4 11.6 1.0989252 
20.0 86.4 29.6 1.0238436 
30.0 86.4 29.6 1.080558 
10.0 86.4 29.6 0.9125748 
40.0 86.4 29.6 1.1173392 
50.0 86.4 29.6 1.1421684 
60.0 86.4 29.6 1.161018 
90.0 86.4 29.6 1.1961108 
10.0 86.4 47.6 0.9375192 
40.0 86.4 47.6 1.1130552 
50.0 86.4 47.6 1.1338416 
60.0 86.4 47.6 1.1493072 
10.0 93.6 4.4 0.5804748 
40.0 93.6 4.4 0.8806644 
50.0 93.6 4.4 0.9247068 
60.0 93.6 4.4 0.959346 
30.0 93.6 22.4 1.0599552 
10.0 93.6 22.4 0.8755668 
40.0 93.6 22.4 1.101618 
50.0 93.6 22.4 1.130904 
60.0 93.6 22.4 1.1531736 
90.0 93.6 22.4 1.1960316 
10.0 93.6 40.4 0.9231732 
40.0 93.6 40.4 1.1132604 
50.0 93.6 40.4 1.136664 
60.0 93.6 40.4 1.1541708 
30.0 93.6 58.4 1.0611432 
10.0 93.6 58.4 0.9202932 
40.0 93.6 58.4 1.089396 
50.0 93.6 58.4 1.1083896 
60.0 93.6 58.4 1.1228112 
90.0 93.6 58.4 1.1465388 
10.0 97.2 0.8 0.23072976 
40.0 97.2 0.8 0.5057892 
50.0 97.2 0.8 0.5564448 
60.0 97.2 0.8 0.5979168 
10.0 97.2 18.8 0.8462412 
40.0 97.2 18.8 1.082916 
50.0 97.2 18.8 1.1145384 
60.0 97.2 18.8 1.13859 
10.0 97.2 36.8 0.9130644 
30.0 97.2 36.8 1.0762128 
40.0 97.2 36.8 1.111194 
10.0 97.2 54.8 0.9154728 
20.0 97.2 54.8 1.0114596 
50.0 97.2 54.8 1.1103336 
60.0 97.2 54.8 1.1249964 
70.0 97.2 54.8 1.1363832 
90.0 97.2 54.8 1.1507688 
100.0 97.2 54.8 1.1562516 
60.0 100.8 15.2 1.1160504 
60.0 100.8 33.2 1.1505348 
90.0 100.8 33.2 1.1871468 
60.0 100.8 51.2 1.1257632 
60.0 104.4 11.6 1.0812708 
60.0 104.4 29.6 1.14453 
30.0 111.6 22.4 1.0243296 
60.0 111.6 22.4 1.1223864 
60.0 111.6 40.4 1.1397492 
60.0 111.6 58.4 1.1226528 
90.0 115.2 0.8 0.6441228 
60.0 115.2 18.8 1.1044296 
90.0 115.2 18.8 1.1565216 
100.0 115.2 36.8 1.18098 
20.0 115.2 54.8 0.9990504 
100.0 115.2 54.8 1.1577204 
20.0 118.8 15.2 0.894258 
60.0 118.8 15.2 1.0762776 
80.0 118.8 15.2 1.1173608 
20.0 118.8 33.2 0.9786924 
40.0 118.8 33.2 1.0776492 
100.0 118.8 33.2 1.1778624 
10.0 118.8 51.2 0.8894088 
60.0 118.8 51.2 1.1197296 
40.0 122.4 11.6 0.96939 
10.0 122.4 29.6 0.845532 
60.0 122.4 29.6 1.1168964 
80.0 122.4 29.6 1.1495952 
30.0 122.4 47.6 1.0384416 
70.0 129.6 4.4 0.89523 
90.0 129.6 4.4 0.9411624 
20.0 129.6 22.4 0.9164628 
40.0 129.6 22.4 1.027476 
60.0 129.6 22.4 1.086048 
80.0 129.6 22.4 1.1227716 
100.0 129.6 22.4 1.1487096 
10.0 129.6 40.4 0.8598996 
20.0 129.6 58.4 0.9832572 
40.0 129.6 58.4 1.069434 
60.0 129.6 58.4 1.1102256 
80.0 129.6 58.4 1.1341836 
40.0 133.2 0.8 0.4285944 
60.0 133.2 0.8 0.5122476 
70.0 133.2 0.8 0.5446152 
60.0 122.4 47.6 1.1173788 
100.0 129.6 58.4 1.1487024 
10.0 133.2 0.8 0.18914976 
30.0 133.2 0.8 0.371646 
90.0 133.2 0.8 0.5975424 
10.0 133.2 18.8 0.7595496 
40.0 133.2 18.8 1.0017648 
70.0 133.2 18.8 1.0834524 
0.0 133.2 36.8 0.034332516 
20.0 133.2 36.8 0.9568404 
40.0 133.2 36.8 1.0557684 
60.0 133.2 36.8 1.105434 
100.0 133.2 36.8 1.1573496 
10.0 133.2 54.8 0.8726004 
80.0 133.2 54.8 1.1316888 
10.0 32.4 11.6 0.8396496 
20.0 32.4 29.6 1.0003356 
30.0 32.4 47.6 1.023066 
30.0 39.6 40.4 1.050192 
30.0 46.8 15.2 1.0537056 
20.0 50.4 11.6 0.9661284 
30.0 57.6 40.4 1.0741104 
50.0 57.6 58.4 1.0990332 
60.0 57.6 58.4 1.1091024 
30.0 64.8 33.2 1.0806948 
30.0 75.6 22.4 1.0653876 
50.0 75.6 40.4 1.13931 
60.0 75.6 40.4 1.153782 
30.0 79.2 18.8 1.0524312 
30.0 82.8 33.2 1.086786 
30.0 97.2 18.8 1.0392588 
50.0 97.2 36.8 1.1357748 
60.0 97.2 36.8 1.1541888 
20.0 111.6 22.4 0.958482 
20.0 90.0 8.0 0.8517528 
90.0 90.0 8.0 1.11375 
50.0 90.0 26.0 1.14012 
60.0 90.0 26.0 1.1610972 
60.0 90.0 44.0 1.1526228 
30.0 18.0 44.0 0.9816084 
100.0 18.0 44.0 1.023642 
80.0 36.0 8.0 1.1320308 
20.0 36.0 26.0 1.0072404 
90.0 36.0 44.0 1.0967184 
90.0 54.0 8.0 1.1563992 
80.0 54.0 44.0 1.136934 
30.0 72.0 8.0 0.9542592 
80.0 72.0 8.0 1.1138544 
0.0 72.0 26.0 0.03903228 
20.0 72.0 44.0 1.0402596 
60.0 108.0 26.0 1.1349864 
80.0 14.4 29.6 1.031886 
80.0 14.4 47.6 1.0017756 
80.0 21.6 58.4 1.01817 
50.0 25.2 36.8 1.0518192 
60.0 25.2 36.8 1.06137 
40.0 28.8 15.2 1.0662552 
50.0 28.8 15.2 1.0891188 
90.0 28.8 15.2 1.1378124 
30.0 28.8 51.2 1.0096956 
50.0 28.8 51.2 1.0421604 
60.0 28.8 51.2 1.049364 
90.0 32.4 11.6 1.1485584 
80.0 32.4 47.6 1.074528 
20.0 39.6 22.4 1.0087488 
20.0 43.2 0.8 0.4632444 
20.0 43.2 54.8 1.0017792 
30.0 43.2 54.8 1.0388628 
50.0 43.2 54.8 1.07442 
60.0 43.2 54.8 1.0838232 
20.0 46.8 33.2 1.0231524 
50.0 46.8 33.2 1.1166516 
60.0 46.8 33.2 1.1296512 
20.0 46.8 51.2 1.0098108 
100.0 50.4 11.6 1.1840508 
30.0 57.6 4.4 0.898254 
50.0 57.6 4.4 0.996318 
60.0 57.6 4.4 1.0295244 
20.0 57.6 22.4 1.0246356 
80.0 57.6 40.4 1.1475144 
20.0 61.2 0.8 0.4302828 
20.0 61.2 18.8 1.0119096 
20.0 61.2 36.8 1.0309824 
50.0 61.2 54.8 1.1098008 
60.0 61.2 54.8 1.1207304 
30.0 64.8 15.2 1.0555164 
50.0 64.8 15.2 1.1274516 
60.0 64.8 15.2 1.1500704 
80.0 64.8 33.2 1.1684592 
0.0 64.8 51.2 0.0665514 
20.0 68.4 29.6 1.0268748 
20.0 68.4 47.6 1.0371888 
80.0 75.6 4.4 1.0498752 
80.0 75.6 22.4 1.1786688 
40.0 75.6 58.4 1.100646 
50.0 75.6 58.4 1.117908 
60.0 75.6 58.4 1.1294352 
70.0 75.6 58.4 1.1374884 
20.0 79.2 0.8 0.3909744 
80.0 79.2 18.8 1.175832 
40.0 79.2 54.8 1.1078712 
50.0 79.2 54.8 1.1259576 
90.0 79.2 54.8 1.1573496 
40.0 82.8 51.2 1.1106 
50.0 82.8 51.2 1.1296764 
60.0 82.8 51.2 1.1433744 
70.0 82.8 51.2 1.1531232 
20.0 86.4 11.6 0.916542 
20.0 86.4 47.6 1.0355904 
20.0 93.6 4.4 0.734652 
20.0 93.6 22.4 0.9970884 
20.0 93.6 40.4 1.0273932 
20.0 93.6 58.4 1.0144188 
20.0 97.2 0.8 0.35664372 
80.0 97.2 18.8 1.1731392 
60.0 115.2 36.8 1.1337192 
70.0 136.8 15.2 1.053684 
90.0 136.8 15.2 1.0889532 
20.0 136.8 33.2 0.940302 
40.0 136.8 33.2 1.0426752 
60.0 136.8 33.2 1.0947924 
80.0 136.8 33.2 1.1279412 
100.0 136.8 33.2 1.1500344 
40.0 136.8 51.2 1.0588608 
60.0 136.8 51.2 1.103742 
70.0 136.8 51.2 1.1186424 
90.0 136.8 51.2 1.13994 
100.0 14.4 29.6 1.0350324 
100.0 14.4 47.6 0.9988596 
80.0 39.6 40.4 1.1122848 
90.0 43.2 0.8 0.807372 
80.0 46.8 15.2 1.1665584 
90.0 50.4 47.6 1.1253708 
100.0 57.6 40.4 1.1565108 
90.0 61.2 0.8 0.7802352 
90.0 61.2 18.8 1.1951856 
90.0 64.8 51.2 1.1485224 
90.0 68.4 29.6 1.1821392 
100.0 75.6 4.4 1.086444 
100.0 75.6 22.4 1.1979756 
80.0 82.8 33.2 1.1856564 
90.0 86.4 11.6 1.1536884 
90.0 86.4 47.6 1.1740464 
90.0 93.6 4.4 1.0326636 
90.0 93.6 40.4 1.1833416 
100.0 97.2 18.8 1.1970828 
90.0 100.8 15.2 1.168992 
10.0 129.6 4.4 0.500382 
30.0 129.6 4.4 0.729486 
60.0 129.6 40.4 1.1142 
90.0 129.6 40.4 1.153584 
50.0 18.0 44.0 1.0126044 
60.0 18.0 44.0 1.0195308 
80.0 18.0 44.0 1.025334 
20.0 36.0 8.0 0.9226152 
90.0 36.0 26.0 1.138752 
40.0 7.2 36.8 0.9503424 
100.0 7.2 36.8 0.968868 
10.0 7.2 54.8 0.8233056 
80.0 7.2 54.8 0.9534168 
50.0 14.4 29.6 1.0141776 
60.0 14.4 29.6 1.0235448 
50.0 21.6 22.4 1.0601496 
60.0 21.6 22.4 1.0725408 
50.0 28.8 33.2 1.0696248 
60.0 28.8 33.2 1.0806444 
80.0 28.8 51.2 1.0562976 
50.0 32.4 11.6 1.0897128 
60.0 32.4 11.6 1.1104524 
90.0 32.4 29.6 1.1179548 
20.0 133.2 18.8 0.8858052 
60.0 133.2 18.8 1.0616436 
60.0 133.2 54.8 1.1062368 
70.0 136.8 33.2 1.1128248 
90.0 133.2 54.8 1.1406744 
10.0 136.8 15.2 0.7179912 
30.0 136.8 15.2 0.9185184 
60.0 36.0 8.0 1.0968696 
30.0 36.0 8.0 0.9928296 
50.0 36.0 8.0 1.0714248 
40.0 36.0 26.0 1.0842912 
20.0 36.0 44.0 1.0003392 
50.0 36.0 44.0 1.0751472 
60.0 36.0 44.0 1.0855116 
30.0 7.2 54.8 0.922734 
40.0 7.2 54.8 0.9394956 
40.0 10.8 33.2 0.9753984 
50.0 10.8 33.2 0.9878832 
60.0 10.8 33.2 0.9963072 
100.0 10.8 33.2 1.0024452 
50.0 10.8 51.2 0.970704 
60.0 10.8 51.2 0.975942 
70.0 10.8 51.2 0.9783288 
10.0 14.4 29.6 0.8551548 
40.0 14.4 47.6 0.9808884 
20.0 21.6 22.4 0.9683208 
30.0 21.6 22.4 1.014282 
20.0 21.6 40.4 0.9613872 
40.0 25.2 36.8 1.03779 
60.0 28.8 15.2 1.1066472 
40.0 25.2 54.8 1.0150632 
50.0 25.2 54.8 1.0258416 
60.0 25.2 54.8 1.0327716 
10.0 28.8 15.2 0.8635068 
0.0 118.8 33.2 0.034427052 
0.0 129.6 4.4 0.005169276 
40.0 129.6 4.4 0.7872516 
60.0 129.6 4.4 0.8662032 
70.0 129.6 22.4 1.1058012 
30.0 129.6 40.4 1.0288224 
0.0 133.2 54.8 0.04610628 
60.0 108.0 44.0 1.1416464 
0.0 3.6 58.4 0.11970036 
0.0 10.8 51.2 0.10634652 
0.0 18.0 44.0 0.09249732 
0.0 21.6 40.4 0.08533548 
0.0 25.2 18.8 0.05258412 
0.0 25.2 36.8 0.07814808 
0.0 25.2 54.8 0.09404892 
0.0 39.6 22.4 0.04867848 
0.0 43.2 0.8 0.002289636 
0.0 50.4 29.6 0.05298372 
0.0 54.0 8.0 0.017678376 
0.0 64.8 33.2 0.04962492 
0.0 68.4 11.6 0.020990736 
0.0 72.0 8.0 0.014193324 
0.0 79.2 0.8 0.0014452632 
0.0 79.2 36.8 0.04852764 
0.0 82.8 15.2 0.022962456 
0.0 86.4 11.6 0.01753128 
0.0 90.0 8.0 0.012129696 
0.0 36.0 8.0 0.022687524 
10.0 10.8 33.2 0.8393436 
0.0 14.4 29.6 0.08120052 
0.0 21.6 22.4 0.06223428 
50.0 21.6 40.4 1.0320588 
60.0 21.6 40.4 1.0407456 
90.0 21.6 40.4 1.0491228 
100.0 21.6 58.4 1.015002 
0.0 28.8 15.2 0.042732 
0.0 28.8 51.2 0.08817552 
0.0 32.4 11.6 0.032719716 
0.0 32.4 29.6 0.0638352 
50.0 39.6 40.4 1.0896588 
60.0 39.6 40.4 1.1003616 
0.0 39.6 58.4 0.08497296 
0.0 43.2 18.8 0.04102524 
20.0 43.2 18.8 1.0055988 
50.0 43.2 18.8 1.1197044 
60.0 43.2 18.8 1.1375136 
0.0 43.2 36.8 0.06487848 
50.0 43.2 36.8 1.1049732 
60.0 43.2 36.8 1.1166084 
0.0 43.2 54.8 0.07992648 
50.0 46.8 15.2 1.1188512 
60.0 46.8 15.2 1.1391192 
0.0 46.8 33.2 0.05870988 
90.0 46.8 33.2 1.1502756 
0.0 50.4 11.6 0.025464708 
50.0 50.4 29.6 1.1301876 
60.0 50.4 29.6 1.1442996 
0.0 50.4 47.6 0.0699876 
50.0 50.4 47.6 1.099152 
60.0 50.4 47.6 1.1094732 
0.0 64.8 15.2 0.027459504 
10.0 64.8 33.2 0.9297792 
100.0 64.8 33.2 1.18071 
90.0 118.8 15.2 1.1329704 
0.0 122.4 29.6 0.030720168 
0.0 122.4 47.6 0.04374756 
0.0 129.6 22.4 0.023291172 
0.0 129.6 58.4 0.04908888 
0.0 133.2 0.8 0.0009338004 
0.0 133.2 18.8 0.019557864 
80.0 133.2 18.8 1.101132 
90.0 133.2 18.8 1.1161836 
0.0 136.8 33.2 0.030974112 
0.0 36.0 26.0 0.05631876 
0.0 36.0 44.0 0.07678152 
30.0 36.0 44.0 1.0388808 
20.0 54.0 8.0 0.9179604 
30.0 54.0 8.0 0.9919044 
50.0 54.0 8.0 1.0749492 
60.0 54.0 8.0 1.1018556 
0.0 54.0 26.0 0.04666212 
20.0 54.0 26.0 1.0306908 
30.0 54.0 26.0 1.083654 
50.0 54.0 26.0 1.136826 
60.0 54.0 26.0 1.1527164 
0.0 54.0 44.0 0.06513336 
10.0 54.0 44.0 0.9353016 
50.0 54.0 44.0 1.1111652 
60.0 54.0 44.0 1.1228976 
100.0 54.0 44.0 1.1430828 
0.0 7.2 36.8 0.09953064 
0.0 7.2 54.8 0.11319768 
0.0 10.8 33.2 0.09048708 
0.0 126.0 26.0 0.027022104 
0.0 126.0 44.0 0.04095864 
0.0 14.4 47.6 0.0995418 
0.0 21.6 58.4 0.09931176 
40.0 21.6 58.4 0.998208 
30.0 25.2 18.8 1.0271844 
40.0 25.2 18.8 1.0574712 
90.0 25.2 18.8 1.1180376 
100.0 25.2 18.8 1.12257 
0.0 28.8 33.2 0.07076448 
0.0 32.4 47.6 0.08223372 
0.0 39.6 40.4 0.07072776 
10.0 39.6 40.4 0.921996 
20.0 39.6 58.4 0.9932364 
30.0 39.6 58.4 1.02924 
80.0 39.6 58.4 1.07775 
90.0 39.6 58.4 1.0787148 
30.0 43.2 18.8 1.0609776 
20.0 43.2 36.8 1.018494 
0.0 46.8 15.2 0.03326724 
10.0 46.8 15.2 0.875178 
30.0 46.8 33.2 1.0697148 
70.0 46.8 51.2 1.1023596 
10.0 50.4 11.6 0.8394984 
50.0 50.4 11.6 1.1056356 
60.0 50.4 11.6 1.1286612 
20.0 50.4 29.6 1.0319256 
30.0 50.4 29.6 1.080108 
20.0 50.4 47.6 1.018044 
80.0 57.6 4.4 1.0779372 
0.0 57.6 22.4 0.04029696 
90.0 57.6 22.4 1.1898612 
0.0 57.6 40.4 0.05992308 
40.0 57.6 40.4 1.1011356 
0.0 57.6 58.4 0.07499772 
10.0 57.6 58.4 0.9381564 
30.0 57.6 58.4 1.0606356 
40.0 57.6 58.4 1.0837584 
80.0 57.6 58.4 1.1191248 
0.0 61.2 0.8 0.0017831952 
0.0 61.2 18.8 0.033908688 
50.0 61.2 18.8 1.1374416 
60.0 61.2 18.8 1.156824 
0.0 61.2 36.8 0.05477076 
50.0 61.2 36.8 1.127268 
60.0 61.2 36.8 1.141128 
90.0 61.2 36.8 1.1649852 
0.0 61.2 54.8 0.0709236 
10.0 64.8 15.2 0.86751 
0.0 118.8 15.2 0.017799444 
0.0 118.8 51.2 0.04698144 
0.0 122.4 11.6 0.013598028 
0.0 129.6 40.4 0.03764196 
0.0 136.8 15.2 0.015823656 
40.0 136.8 15.2 0.9662688 
60.0 136.8 15.2 1.0305864 
80.0 136.8 51.2 1.1307132 
0.0 93.6 58.4 0.05837868 
0.0 68.4 47.6 0.06200784 
0.0 68.4 29.6 0.0443502 
0.0 72.0 44.0 0.05762376 
0.0 75.6 22.4 0.033682572 
0.0 75.6 40.4 0.05299416 
0.0 75.6 58.4 0.06654384 
0.0 79.2 18.8 0.028349928 
0.0 79.2 54.8 0.0628074 
0.0 82.8 51.2 0.0587772 
0.0 86.4 29.6 0.03916332 
0.0 86.4 47.6 0.05493348 
0.0 93.6 4.4 0.006749208 
0.0 93.6 22.4 0.029866968 
0.0 93.6 40.4 0.04676688 
0.0 97.2 0.8 0.0012274164 
0.0 97.2 18.8 0.025081344 
0.0 97.2 36.8 0.04274568 
0.0 97.2 54.8 0.05488272 
