Enrichment multiplier_height breeder_height tbr
60.0 57.6 22.4 1.2351816 
70.0 57.6 22.4 1.2475332 
70.0 64.8 33.2 1.23003 
60.0 72.0 44.0 1.2156372 
70.0 72.0 44.0 1.224234 
70.0 79.2 18.8 1.2596868 
60.0 86.4 47.6 1.2216816 
70.0 86.4 47.6 1.230984 
70.0 97.2 18.8 1.2681216 
60.0 50.4 47.6 1.1601216 
70.0 50.4 47.6 1.1662956 
60.0 68.4 47.6 1.2010212 
70.0 68.4 47.6 1.208898 
60.0 93.6 4.4 1.1352492 
70.0 93.6 4.4 1.1571372 
60.0 54.0 26.0 1.2235824 
70.0 54.0 26.0 1.2337956 
70.0 32.4 47.6 1.1072124 
60.0 93.6 40.4 1.2369132 
70.0 93.6 40.4 1.2475368 
70.0 57.6 40.4 1.2003552 
70.0 75.6 4.4 1.1723364 
60.0 43.2 36.8 1.1678076 
70.0 43.2 36.8 1.1748852 
60.0 39.6 22.4 1.1901924 
70.0 39.6 22.4 1.2003048 
60.0 50.4 11.6 1.2179124 
60.0 61.2 18.8 1.2437712 
70.0 61.2 18.8 1.2570444 
70.0 75.6 22.4 1.2559104 
60.0 28.8 33.2 1.1217024 
70.0 82.8 33.2 1.2569796 
60.0 97.2 0.8 0.8717472 
70.0 97.2 0.8 0.9002556 
70.0 90.0 26.0 1.2712464 
60.0 21.6 40.4 1.070334 
70.0 21.6 40.4 1.0749888 
70.0 39.6 40.4 1.1529612 
70.0 46.8 15.2 1.230768 
60.0 61.2 36.8 1.2054204 
70.0 61.2 36.8 1.215306 
60.0 68.4 29.6 1.229706 
70.0 68.4 29.6 1.2407724 
60.0 79.2 0.8 0.8839188 
70.0 79.2 0.8 0.913068 
60.0 82.8 15.2 1.2391164 
60.0 90.0 8.0 1.1956464 
70.0 90.0 8.0 1.21518 
70.0 115.2 54.8 1.2193056 
60.0 36.0 44.0 1.1273148 
60.0 100.8 51.2 1.2064716 
70.0 100.8 51.2 1.2159036 
60.0 115.2 18.8 1.235268 
70.0 115.2 18.8 1.2519648 
60.0 32.4 29.6 1.1476296 
70.0 32.4 29.6 1.1558232 
60.0 108.0 44.0 1.2319812 
70.0 21.6 58.4 1.04085 
60.0 61.2 0.8 0.8917776 
70.0 61.2 0.8 0.921528 
60.0 100.8 15.2 1.2429792 
70.0 100.8 15.2 1.2599388 
70.0 14.4 47.6 1.0199304 
70.0 36.0 8.0 1.195452 
70.0 14.4 29.6 1.0540692 
70.0 54.0 44.0 1.1844 
70.0 72.0 8.0 1.209726 
60.0 21.6 22.4 1.1126736 
60.0 28.8 15.2 1.163808 
70.0 32.4 11.6 1.193058 
60.0 43.2 18.8 1.2080592 
70.0 43.2 54.8 1.1304252 
60.0 50.4 29.6 1.2080952 
60.0 54.0 8.0 1.2058488 
70.0 64.8 15.2 1.2605868 
60.0 68.4 11.6 1.23696 
60.0 79.2 54.8 1.2029796 
60.0 86.4 29.6 1.2507336 
60.0 93.6 22.4 1.2579372 
60.0 93.6 58.4 1.1941848 
60.0 100.8 33.2 1.2466296 
70.0 108.0 8.0 1.2076344 
60.0 115.2 0.8 0.8536788 
70.0 115.2 36.8 1.24965 
70.0 90.0 44.0 1.239822 
60.0 36.0 26.0 1.1708676 
70.0 36.0 26.0 1.1795796 
70.0 72.0 26.0 1.2502944 
70.0 7.2 36.8 0.9829188 
60.0 108.0 26.0 1.2459708 
60.0 25.2 36.8 1.0962072 
60.0 43.2 0.8 0.8778816 
70.0 43.2 0.8 0.908082 
70.0 46.8 33.2 1.1954376 
100.0 54.0 8.0 1.2635892 
60.0 64.8 51.2 1.189458 
70.0 64.8 51.2 1.1962728 
70.0 75.6 40.4 1.235322 
60.0 79.2 36.8 1.2372444 
60.0 86.4 11.6 1.2237768 
70.0 86.4 11.6 1.2414312 
70.0 97.2 36.8 1.255068 
60.0 122.4 11.6 1.1974608 
70.0 122.4 11.6 1.2159 
60.0 126.0 8.0 1.1614032 
70.0 126.0 44.0 1.2360852 
60.0 133.2 36.8 1.22229 
60.0 136.8 33.2 1.2187548 
90.0 7.2 36.8 0.9824292 
80.0 7.2 54.8 0.9634608 
90.0 14.4 29.6 1.057554 
90.0 14.4 47.6 1.0186452 
80.0 18.0 44.0 1.0489608 
70.0 21.6 22.4 1.1200428 
70.0 25.2 36.8 1.1015712 
80.0 25.2 36.8 1.1046708 
70.0 28.8 15.2 1.176444 
70.0 28.8 33.2 1.1282292 
80.0 28.8 33.2 1.132326 
80.0 28.8 51.2 1.0871172 
90.0 28.8 51.2 1.0864512 
60.0 36.0 8.0 1.1780064 
90.0 32.4 47.6 1.110942 
70.0 36.0 44.0 1.1318652 
80.0 39.6 40.4 1.1569788 
90.0 39.6 40.4 1.1598804 
80.0 43.2 0.8 0.9333576 
70.0 43.2 18.8 1.219896 
80.0 43.2 36.8 1.180152 
80.0 43.2 54.8 1.1334204 
80.0 46.8 15.2 1.2417552 
90.0 46.8 15.2 1.2511944 
80.0 46.8 33.2 1.20177 
70.0 50.4 11.6 1.2336696 
80.0 50.4 11.6 1.247076 
70.0 50.4 29.6 1.2173292 
80.0 50.4 47.6 1.1702412 
70.0 54.0 8.0 1.224198 
80.0 54.0 26.0 1.2422412 
80.0 57.6 4.4 1.1970648 
90.0 57.6 4.4 1.2129336 
90.0 57.6 40.4 1.209708 
80.0 57.6 58.4 1.1677356 
90.0 57.6 58.4 1.1695932 
80.0 61.2 0.8 0.9466596 
80.0 61.2 18.8 1.2676716 
100.0 61.2 36.8 1.2303504 
80.0 64.8 15.2 1.2731328 
80.0 64.8 51.2 1.2007944 
70.0 68.4 11.6 1.2541608 
80.0 68.4 29.6 1.2496752 
80.0 68.4 47.6 1.214856 
90.0 72.0 8.0 1.2401028 
80.0 72.0 26.0 1.2599676 
80.0 72.0 44.0 1.230102 
90.0 75.6 4.4 1.207512 
90.0 75.6 22.4 1.2758112 
80.0 75.6 40.4 1.2427164 
80.0 79.2 0.8 0.9377208 
90.0 79.2 18.8 1.2812292 
70.0 79.2 36.8 1.2478392 
80.0 79.2 36.8 1.2557808 
70.0 79.2 54.8 1.2107916 
70.0 82.8 15.2 1.2551292 
80.0 82.8 15.2 1.2685284 
80.0 82.8 33.2 1.265436 
80.0 86.4 11.6 1.2561588 
70.0 86.4 29.6 1.2625452 
80.0 86.4 47.6 1.2389364 
80.0 93.6 4.4 1.1756016 
70.0 93.6 22.4 1.2727368 
80.0 93.6 40.4 1.2565836 
70.0 93.6 58.4 1.2034512 
80.0 97.2 0.8 0.9243756 
90.0 97.2 18.8 1.2923244 
80.0 97.2 36.8 1.2636252 
90.0 97.2 36.8 1.2709296 
80.0 90.0 8.0 1.2318264 
80.0 90.0 26.0 1.2819024 
90.0 90.0 26.0 1.2901968 
80.0 90.0 44.0 1.2480588 
80.0 100.8 15.2 1.2740472 
70.0 100.8 33.2 1.2591972 
80.0 100.8 51.2 1.223712 
100.0 100.8 51.2 1.2341196 
80.0 108.0 8.0 1.223946 
90.0 108.0 8.0 1.2384972 
70.0 108.0 26.0 1.2608064 
80.0 108.0 26.0 1.2722616 
70.0 108.0 44.0 1.243548 
100.0 108.0 44.0 1.2643812 
60.0 111.6 22.4 1.2425256 
70.0 115.2 0.8 0.8820864 
80.0 115.2 18.8 1.2655008 
80.0 115.2 36.8 1.2593268 
100.0 82.8 15.2 1.288746 
100.0 79.2 54.8 1.2217536 
100.0 28.8 33.2 1.13571 
100.0 90.0 26.0 1.2972996 
100.0 90.0 44.0 1.257696 
100.0 18.0 44.0 1.0475928 
90.0 36.0 26.0 1.1908152 
100.0 36.0 26.0 1.1939616 
90.0 36.0 44.0 1.1361708 
90.0 54.0 8.0 1.2525372 
100.0 54.0 26.0 1.2526812 
100.0 54.0 44.0 1.1942316 
100.0 7.2 36.8 0.9803412 
100.0 7.2 54.8 0.95724 
90.0 72.0 26.0 1.267506 
100.0 72.0 26.0 1.2724056 
100.0 72.0 44.0 1.2385152 
90.0 108.0 26.0 1.2827304 
100.0 14.4 29.6 1.0573488 
100.0 14.4 47.6 1.0167984 
90.0 21.6 22.4 1.1296548 
100.0 21.6 22.4 1.1324088 
100.0 21.6 40.4 1.077138 
90.0 25.2 36.8 1.10619 
90.0 28.8 15.2 1.1938248 
100.0 28.8 51.2 1.085346 
100.0 32.4 29.6 1.16496 
100.0 39.6 22.4 1.2191904 
100.0 39.6 40.4 1.1608128 
90.0 43.2 0.8 0.9554688 
100.0 43.2 0.8 0.9749556 
90.0 43.2 18.8 1.2364308 
100.0 43.2 18.8 1.2422376 
100.0 43.2 36.8 1.1856672 
100.0 43.2 54.8 1.1341224 
100.0 46.8 15.2 1.258236 
100.0 46.8 33.2 1.208034 
90.0 50.4 11.6 1.2578868 
90.0 50.4 29.6 1.2288636 
100.0 50.4 29.6 1.2323664 
90.0 50.4 47.6 1.1730708 
100.0 50.4 47.6 1.1743344 
100.0 57.6 4.4 1.2272004 
100.0 57.6 22.4 1.269162 
100.0 57.6 40.4 1.2125988 
100.0 57.6 58.4 1.1694708 
90.0 61.2 0.8 0.968688 
100.0 61.2 0.8 0.9876744 
90.0 61.2 18.8 1.2760236 
100.0 61.2 18.8 1.2832812 
100.0 64.8 15.2 1.2917808 
90.0 64.8 51.2 1.2036312 
100.0 64.8 51.2 1.2048336 
90.0 68.4 11.6 1.280232 
100.0 68.4 11.6 1.290078 
90.0 68.4 29.6 1.255446 
100.0 68.4 29.6 1.2609576 
100.0 68.4 47.6 1.2209148 
100.0 75.6 4.4 1.2214008 
100.0 75.6 22.4 1.2832596 
100.0 75.6 40.4 1.25172 
100.0 79.2 0.8 0.977436 
90.0 79.2 36.8 1.261764 
90.0 79.2 54.8 1.2194712 
90.0 82.8 15.2 1.2794868 
100.0 82.8 33.2 1.277694 
90.0 86.4 11.6 1.268784 
100.0 86.4 11.6 1.2796128 
90.0 86.4 29.6 1.2801888 
100.0 86.4 29.6 1.2862908 
90.0 86.4 47.6 1.2436308 
100.0 86.4 47.6 1.247544 
90.0 93.6 4.4 1.1916648 
100.0 93.6 4.4 1.2059208 
90.0 93.6 22.4 1.2941136 
100.0 93.6 22.4 1.301634 
90.0 93.6 40.4 1.2624948 
100.0 93.6 40.4 1.2676608 
90.0 93.6 58.4 1.2135672 
100.0 93.6 58.4 1.2169584 
100.0 97.2 0.8 0.9630612 
100.0 97.2 18.8 1.3015836 
100.0 97.2 36.8 1.2769092 
90.0 100.8 15.2 1.2861288 
100.0 100.8 15.2 1.296468 
90.0 100.8 33.2 1.2765348 
100.0 100.8 33.2 1.2831012 
90.0 115.2 0.8 0.9263988 
100.0 115.2 0.8 0.9443016 
100.0 115.2 18.8 1.2864132 
100.0 115.2 36.8 1.273572 
100.0 115.2 54.8 1.2375 
70.0 122.4 29.6 1.2480552 
60.0 129.6 22.4 1.2215232 
100.0 90.0 8.0 1.2579012 
20.0 115.2 54.8 1.1076444 
10.0 118.8 15.2 0.984024 
60.0 118.8 51.2 1.2121992 
100.0 118.8 15.2 1.2751524 
60.0 118.8 33.2 1.2355884 
70.0 118.8 33.2 1.2497364 
90.0 118.8 33.2 1.2690432 
20.0 118.8 51.2 1.1069388 
80.0 118.8 51.2 1.2318048 
10.0 122.4 11.6 0.9526716 
90.0 122.4 11.6 1.2449988 
60.0 122.4 47.6 1.2135168 
100.0 122.4 29.6 1.277388 
80.0 122.4 47.6 1.2348504 
70.0 126.0 26.0 1.2436704 
10.0 126.0 26.0 1.0135044 
90.0 126.0 26.0 1.26684 
20.0 126.0 44.0 1.1127708 
100.0 126.0 44.0 1.260324 
60.0 129.6 4.4 1.088982 
80.0 129.6 4.4 1.1280384 
10.0 129.6 40.4 1.0246644 
60.0 126.0 26.0 1.2284856 
60.0 133.2 18.8 1.2090636 
100.0 129.6 40.4 1.2624084 
30.0 129.6 58.4 1.1424276 
60.0 129.6 58.4 1.2039336 
90.0 129.6 58.4 1.2283632 
60.0 133.2 0.8 0.829998 
100.0 133.2 0.8 0.9177732 
80.0 133.2 18.8 1.239318 
10.0 133.2 36.8 1.0190844 
90.0 133.2 36.8 1.2553848 
10.0 133.2 54.8 1.018332 
60.0 136.8 15.2 1.191924 
100.0 133.2 54.8 1.2375432 
80.0 136.8 15.2 1.223982 
60.0 136.8 51.2 1.2080448 
10.0 136.8 51.2 1.0172124 
80.0 136.8 51.2 1.229022 
40.0 3.6 58.4 0.9266796 
50.0 3.6 58.4 0.93465 
90.0 3.6 58.4 0.9328896 
20.0 7.2 36.8 0.9107352 
20.0 7.2 54.8 0.9051444 
20.0 10.8 33.2 0.9401544 
70.0 10.8 33.2 1.0189296 
100.0 10.8 33.2 1.0195848 
30.0 10.8 51.2 0.9599148 
80.0 10.8 51.2 0.9908496 
0.0 14.4 29.6 0.08227296 
40.0 14.4 29.6 1.0268964 
20.0 14.4 47.6 0.9517248 
20.0 18.0 44.0 0.9747648 
30.0 21.6 40.4 1.0307772 
90.0 21.6 40.4 1.077552 
20.0 21.6 58.4 0.9756468 
100.0 21.6 58.4 1.037862 
10.0 25.2 18.8 0.9342972 
50.0 25.2 18.8 1.12716 
60.0 25.2 18.8 1.1403072 
90.0 25.2 18.8 1.1630484 
20.0 25.2 36.8 1.0162656 
100.0 25.2 36.8 1.106514 
10.0 25.2 54.8 0.9237456 
40.0 25.2 54.8 1.0448064 
90.0 25.2 54.8 1.0643184 
20.0 28.8 15.2 1.0421172 
20.0 28.8 33.2 1.0354716 
100.0 28.8 15.2 1.199628 
0.0 28.8 33.2 0.07212456 
30.0 28.8 33.2 1.0744092 
90.0 28.8 33.2 1.134882 
0.0 28.8 51.2 0.0894474 
60.0 32.4 11.6 1.1783844 
90.0 32.4 11.6 1.2140964 
10.0 32.4 29.6 0.9680652 
90.0 32.4 29.6 1.1636892 
20.0 32.4 47.6 1.0286172 
100.0 32.4 47.6 1.1101608 
100.0 36.0 8.0 1.2321504 
10.0 36.0 26.0 0.9795816 
90.0 39.6 22.4 1.2141288 
20.0 39.6 40.4 1.062864 
40.0 39.6 58.4 1.0904184 
80.0 39.6 58.4 1.1158128 
10.0 43.2 0.8 0.4826844 
30.0 43.2 36.8 1.1185092 
90.0 43.2 54.8 1.1347992 
20.0 46.8 15.2 1.0867608 
30.0 46.8 51.2 1.0990476 
80.0 46.8 51.2 1.1516256 
0.0 50.4 11.6 0.02622996 
100.0 50.4 11.6 1.2665448 
10.0 50.4 29.6 1.0162764 
30.0 50.4 47.6 1.1137248 
20.0 54.0 26.0 1.1132136 
90.0 54.0 26.0 1.2481884 
90.0 57.6 22.4 1.2636576 
20.0 57.6 40.4 1.0995084 
20.0 61.2 18.8 1.1165796 
30.0 61.2 18.8 1.1692836 
20.0 61.2 36.8 1.1081556 
30.0 61.2 36.8 1.150002 
90.0 61.2 36.8 1.2268872 
60.0 61.2 54.8 1.17414 
20.0 61.2 54.8 1.0920924 
90.0 61.2 54.8 1.186956 
20.0 64.8 33.2 1.1152296 
100.0 64.8 33.2 1.2471444 
10.0 64.8 51.2 1.023732 
20.0 64.8 51.2 1.1026656 
20.0 68.4 29.6 1.1195856 
30.0 68.4 29.6 1.1650032 
20.0 68.4 47.6 1.1108016 
30.0 68.4 47.6 1.1499552 
90.0 68.4 47.6 1.2183192 
20.0 72.0 8.0 1.0337832 
100.0 72.0 8.0 1.2520188 
10.0 72.0 26.0 1.0289916 
20.0 72.0 26.0 1.1217708 
90.0 72.0 44.0 1.2350052 
10.0 75.6 4.4 0.8520048 
20.0 75.6 4.4 0.976824 
20.0 75.6 22.4 1.1200788 
20.0 75.6 40.4 1.1260296 
60.0 75.6 58.4 1.1890512 
20.0 75.6 58.4 1.1033568 
80.0 75.6 58.4 1.2009816 
10.0 79.2 0.8 0.4841892 
90.0 79.2 0.8 0.9588096 
20.0 79.2 18.8 1.1145708 
100.0 79.2 18.8 1.2897252 
10.0 79.2 36.8 1.0445616 
100.0 79.2 36.8 1.2667212 
0.0 79.2 54.8 0.06423516 
10.0 79.2 54.8 1.0333008 
20.0 82.8 15.2 1.1019096 
10.0 82.8 33.2 1.04571 
20.0 82.8 33.2 1.134468 
60.0 82.8 51.2 1.2121992 
20.0 82.8 51.2 1.1175048 
80.0 82.8 51.2 1.2268368 
10.0 86.4 11.6 0.9752256 
20.0 86.4 47.6 1.1248704 
30.0 86.4 47.6 1.1656044 
40.0 115.2 54.8 1.1759688 
60.0 115.2 54.8 1.208574 
40.0 118.8 15.2 1.1719368 
10.0 118.8 33.2 1.0296432 
100.0 118.8 51.2 1.2430008 
20.0 118.8 33.2 1.1182212 
30.0 122.4 11.6 1.1087712 
40.0 122.4 29.6 1.1924604 
20.0 122.4 47.6 1.107126 
100.0 122.4 47.6 1.24722 
30.0 126.0 26.0 1.1525904 
40.0 126.0 44.0 1.1875464 
20.0 129.6 4.4 0.92718 
100.0 129.6 4.4 1.1573964 
30.0 129.6 22.4 1.1428164 
100.0 129.6 22.4 1.270098 
40.0 129.6 40.4 1.1853468 
10.0 129.6 58.4 1.0204092 
30.0 133.2 0.8 0.6936228 
80.0 133.2 0.8 0.8807292 
20.0 133.2 18.8 1.0759608 
100.0 133.2 18.8 1.2614688 
30.0 133.2 36.8 1.1515968 
40.0 133.2 54.8 1.1701404 
20.0 136.8 15.2 1.0547568 
100.0 136.8 15.2 1.2473064 
30.0 136.8 33.2 1.1458512 
100.0 136.8 33.2 1.2619224 
30.0 136.8 51.2 1.1438172 
100.0 136.8 51.2 1.2428892 
20.0 3.6 58.4 0.8809704 
70.0 3.6 58.4 0.9370404 
40.0 7.2 36.8 0.9635256 
50.0 7.2 36.8 0.9747 
60.0 7.2 36.8 0.9803448 
20.0 93.6 4.4 0.9651024 
30.0 93.6 4.4 1.0310616 
20.0 93.6 40.4 1.1307492 
30.0 93.6 40.4 1.1743956 
20.0 97.2 0.8 0.6389172 
30.0 97.2 0.8 0.7304508 
90.0 97.2 0.8 0.944982 
20.0 97.2 18.8 1.1208708 
20.0 97.2 36.8 1.131948 
30.0 97.2 54.8 1.1451564 
80.0 97.2 54.8 1.217214 
0.0 90.0 8.0 0.01256418 
10.0 90.0 26.0 1.0432008 
90.0 100.8 51.2 1.230192 
60.0 104.4 29.6 1.2483684 
60.0 43.2 54.8 1.1261232 
90.0 46.8 33.2 1.206 
100.0 108.0 8.0 1.250784 
100.0 108.0 26.0 1.2905028 
60.0 111.6 4.4 1.116486 
10.0 111.6 22.4 1.0206828 
60.0 111.6 58.4 1.2052332 
70.0 126.0 8.0 1.1810844 
0.0 126.0 44.0 0.04206744 
0.0 129.6 22.4 0.02404926 
20.0 129.6 22.4 1.0920924 
10.0 115.2 54.8 1.0265076 
80.0 118.8 15.2 1.252638 
40.0 118.8 33.2 1.1963268 
40.0 122.4 11.6 1.146366 
80.0 122.4 29.6 1.2598956 
20.0 90.0 8.0 1.0404288 
30.0 90.0 8.0 1.100322 
40.0 90.0 8.0 1.1412612 
50.0 90.0 8.0 1.172052 
30.0 90.0 26.0 1.1855124 
20.0 90.0 26.0 1.1359656 
40.0 18.0 44.0 1.0259892 
10.0 3.6 58.4 0.8143956 
30.0 3.6 58.4 0.9115488 
60.0 3.6 58.4 0.937206 
80.0 3.6 58.4 0.935928 
100.0 3.6 58.4 0.9287604 
20.0 36.0 8.0 1.0206504 
30.0 36.0 26.0 1.1137464 
40.0 36.0 26.0 1.1408004 
50.0 36.0 26.0 1.1580588 
20.0 36.0 44.0 1.0486008 
20.0 54.0 8.0 1.0482336 
10.0 54.0 8.0 0.9336816 
40.0 54.0 26.0 1.1889144 
0.0 54.0 44.0 0.066528 
40.0 54.0 44.0 1.1526012 
10.0 7.2 36.8 0.8365824 
80.0 7.2 36.8 0.9833724 
0.0 7.2 54.8 0.11375892 
30.0 7.2 54.8 0.9349164 
90.0 7.2 54.8 0.9610344 
0.0 72.0 8.0 0.014666544 
10.0 72.0 8.0 0.9225468 
40.0 72.0 8.0 1.1359656 
50.0 72.0 8.0 1.1667024 
60.0 72.0 8.0 1.1907288 
30.0 72.0 26.0 1.1694492 
40.0 72.0 26.0 1.1998188 
50.0 72.0 26.0 1.22121 
20.0 72.0 44.0 1.1205 
30.0 72.0 44.0 1.1611152 
0.0 72.0 44.0 0.05896728 
40.0 72.0 44.0 1.1868228 
50.0 72.0 44.0 1.2030732 
0.0 10.8 33.2 0.0913518 
30.0 10.8 33.2 0.9758412 
40.0 10.8 33.2 0.9959796 
90.0 10.8 33.2 1.0212696 
10.0 10.8 51.2 0.8598312 
40.0 10.8 51.2 0.9773784 
60.0 10.8 51.2 0.9902016 
60.0 108.0 8.0 1.1878416 
90.0 108.0 44.0 1.2588228 
20.0 126.0 8.0 1.0109268 
10.0 126.0 8.0 0.9039708 
30.0 126.0 8.0 1.0687032 
80.0 126.0 8.0 1.19817 
100.0 126.0 8.0 1.224864 
0.0 126.0 26.0 0.027840672 
20.0 126.0 26.0 1.1031588 
40.0 126.0 26.0 1.185552 
80.0 126.0 26.0 1.2563172 
100.0 126.0 26.0 1.275786 
10.0 126.0 44.0 1.0288584 
30.0 126.0 44.0 1.1580768 
60.0 126.0 44.0 1.2238668 
80.0 126.0 44.0 1.2461004 
90.0 126.0 44.0 1.2539736 
100.0 10.8 51.2 0.9861408 
20.0 14.4 29.6 0.9681228 
0.0 14.4 47.6 0.10047528 
40.0 14.4 47.6 1.0013868 
50.0 14.4 47.6 1.011708 
60.0 14.4 47.6 1.016802 
20.0 21.6 22.4 1.0136736 
10.0 21.6 22.4 0.92259 
80.0 21.6 22.4 1.12626 
40.0 21.6 40.4 1.0501992 
0.0 21.6 58.4 0.10039968 
40.0 21.6 58.4 1.0232964 
50.0 21.6 58.4 1.0333728 
60.0 21.6 58.4 1.0382508 
20.0 25.2 18.8 1.03149 
30.0 25.2 18.8 1.0801188 
80.0 25.2 18.8 1.1577564 
30.0 25.2 36.8 1.0536084 
30.0 25.2 54.8 1.0273284 
70.0 25.2 54.8 1.0635948 
100.0 25.2 54.8 1.0621872 
30.0 115.2 54.8 1.1490948 
80.0 115.2 54.8 1.2274632 
0.0 118.8 15.2 0.018421308 
30.0 118.8 51.2 1.150812 
70.0 118.8 51.2 1.2227616 
90.0 118.8 51.2 1.2380112 
20.0 122.4 11.6 1.053252 
100.0 122.4 11.6 1.256022 
30.0 122.4 29.6 1.1599776 
0.0 122.4 47.6 0.04488336 
70.0 122.4 47.6 1.2253212 
90.0 122.4 47.6 1.2412296 
0.0 126.0 8.0 0.009749772 
30.0 54.0 44.0 1.1286324 
50.0 7.2 54.8 0.9597852 
60.0 7.2 54.8 0.9636588 
30.0 14.4 47.6 0.9836784 
30.0 21.6 58.4 1.0068336 
40.0 28.8 51.2 1.0643724 
30.0 32.4 11.6 1.0978236 
20.0 32.4 11.6 1.040778 
100.0 32.4 11.6 1.2217644 
30.0 32.4 29.6 1.0962036 
40.0 32.4 29.6 1.1208276 
50.0 32.4 29.6 1.1369448 
0.0 32.4 47.6 0.08359236 
40.0 32.4 47.6 1.082934 
50.0 32.4 47.6 1.0953828 
60.0 32.4 47.6 1.1029824 
100.0 36.0 44.0 1.1362428 
30.0 39.6 22.4 1.1282868 
10.0 39.6 22.4 0.9857412 
40.0 39.6 22.4 1.1568528 
50.0 39.6 22.4 1.1762388 
0.0 39.6 40.4 0.07206336 
40.0 39.6 40.4 1.122822 
10.0 39.6 58.4 0.9649188 
20.0 39.6 58.4 1.0371168 
50.0 39.6 58.4 1.1020536 
70.0 39.6 58.4 1.1134296 
100.0 39.6 58.4 1.1153304 
30.0 43.2 0.8 0.7348824 
40.0 43.2 0.8 0.7963416 
50.0 43.2 0.8 0.8419176 
20.0 43.2 18.8 1.0876248 
80.0 43.2 18.8 1.2286908 
40.0 43.2 36.8 1.1420172 
90.0 43.2 36.8 1.1838096 
30.0 43.2 54.8 1.0853856 
10.0 43.2 54.8 0.9756144 
0.0 46.8 15.2 0.034202772 
40.0 46.8 15.2 1.1752884 
30.0 46.8 33.2 1.1329956 
10.0 46.8 33.2 1.00422 
10.0 46.8 51.2 0.9871704 
40.0 46.8 51.2 1.1205684 
50.0 46.8 51.2 1.1341764 
60.0 46.8 51.2 1.1432592 
100.0 46.8 51.2 1.1537388 
30.0 50.4 11.6 1.1329056 
20.0 50.4 29.6 1.1051172 
80.0 50.4 29.6 1.2246336 
40.0 50.4 47.6 1.136286 
0.0 57.6 4.4 0.010143324 
10.0 57.6 4.4 0.8512056 
40.0 57.6 4.4 1.0935936 
30.0 57.6 22.4 1.1668608 
10.0 57.6 22.4 1.021896 
40.0 57.6 22.4 1.1975724 
50.0 57.6 22.4 1.2189672 
0.0 57.6 40.4 0.06131844 
40.0 57.6 40.4 1.1649096 
50.0 57.6 40.4 1.1810052 
60.0 57.6 40.4 1.1928636 
0.0 57.6 58.4 0.0763866 
30.0 57.6 58.4 1.1161224 
30.0 61.2 0.8 0.7476912 
10.0 61.2 0.8 0.4906728 
40.0 61.2 0.8 0.8096832 
50.0 61.2 0.8 0.8557092 
0.0 61.2 18.8 0.034890048 
0.0 61.2 36.8 0.05613516 
0.0 61.2 54.8 0.07236036 
10.0 61.2 54.8 1.015236 
30.0 61.2 54.8 1.1296188 
70.0 61.2 54.8 1.1804724 
80.0 61.2 54.8 1.1849652 
100.0 61.2 54.8 1.1879604 
0.0 64.8 15.2 0.028315296 
40.0 64.8 15.2 1.2001428 
90.0 64.8 15.2 1.2831732 
0.0 64.8 33.2 0.0508914 
40.0 64.8 33.2 1.1871936 
50.0 64.8 33.2 1.2061404 
60.0 64.8 33.2 1.2192408 
30.0 64.8 51.2 1.1404656 
40.0 64.8 51.2 1.1639232 
50.0 64.8 51.2 1.179108 
20.0 68.4 11.6 1.0910232 
0.0 68.4 11.6 0.021672144 
10.0 68.4 11.6 0.9840276 
30.0 68.4 11.6 1.1483388 
40.0 68.4 11.6 1.1871144 
50.0 68.4 11.6 1.214604 
80.0 68.4 11.6 1.2685068 
0.0 68.4 29.6 0.04552632 
40.0 68.4 29.6 1.1943432 
50.0 68.4 29.6 1.215018 
0.0 68.4 47.6 0.06335892 
40.0 68.4 47.6 1.1736108 
50.0 68.4 47.6 1.1901132 
0.0 75.6 4.4 0.008286552 
40.0 75.6 4.4 1.0899396 
50.0 75.6 4.4 1.1242116 
60.0 75.6 4.4 1.1507292 
30.0 75.6 4.4 1.0445292 
0.0 75.6 22.4 0.03467052 
10.0 75.6 22.4 1.0257012 
40.0 75.6 22.4 1.2023928 
50.0 75.6 22.4 1.225062 
60.0 75.6 22.4 1.241874 
0.0 75.6 40.4 0.0542682 
10.0 75.6 40.4 1.0413504 
30.0 75.6 40.4 1.168362 
90.0 75.6 40.4 1.2475944 
0.0 75.6 58.4 0.06795216 
10.0 75.6 58.4 1.026072 
30.0 75.6 58.4 1.1413656 
90.0 75.6 58.4 1.2039804 
100.0 75.6 58.4 1.205586 
30.0 79.2 0.8 0.74133 
40.0 79.2 0.8 0.8027064 
50.0 79.2 0.8 0.8483112 
0.0 79.2 18.8 0.029237256 
10.0 79.2 18.8 1.0171152 
40.0 79.2 18.8 1.2015468 
50.0 79.2 18.8 1.2261348 
60.0 79.2 18.8 1.2444228 
20.0 79.2 36.8 1.132002 
30.0 79.2 36.8 1.1758176 
40.0 79.2 36.8 1.204632 
50.0 79.2 36.8 1.2232692 
20.0 79.2 54.8 1.112454 
30.0 79.2 54.8 1.151928 
0.0 82.8 15.2 0.023698728 
10.0 82.8 15.2 1.0012032 
30.0 82.8 15.2 1.1558844 
40.0 82.8 15.2 1.1918376 
50.0 82.8 15.2 1.2188016 
0.0 82.8 33.2 0.0450126 
40.0 82.8 33.2 1.2097764 
50.0 82.8 33.2 1.230372 
60.0 82.8 33.2 1.2454632 
90.0 82.8 33.2 1.272222 
0.0 82.8 51.2 0.06017292 
10.0 82.8 51.2 1.0368288 
30.0 82.8 51.2 1.1577708 
90.0 82.8 51.2 1.2308508 
100.0 82.8 51.2 1.2337128 
30.0 86.4 11.6 1.1348856 
40.0 86.4 11.6 1.1738484 
50.0 86.4 11.6 1.2019356 
20.0 86.4 29.6 1.1354184 
0.0 86.4 29.6 0.04025088 
10.0 86.4 29.6 1.0445436 
30.0 86.4 29.6 1.1824992 
40.0 86.4 29.6 1.2134844 
50.0 86.4 29.6 1.2350844 
80.0 86.4 29.6 1.2726972 
0.0 86.4 47.6 0.05625108 
40.0 86.4 47.6 1.1917692 
50.0 86.4 47.6 1.2094596 
0.0 93.6 4.4 0.00699552 
40.0 93.6 4.4 1.0752192 
50.0 93.6 4.4 1.1087316 
20.0 93.6 22.4 1.1305872 
30.0 93.6 22.4 1.1811528 
0.0 93.6 22.4 0.030778596 
40.0 93.6 22.4 1.2150288 
50.0 93.6 22.4 1.239336 
80.0 93.6 22.4 1.2847392 
0.0 93.6 40.4 0.0479754 
40.0 93.6 40.4 1.2020472 
50.0 93.6 40.4 1.2224628 
20.0 93.6 58.4 1.1010168 
30.0 93.6 58.4 1.1408616 
0.0 93.6 58.4 0.05972328 
40.0 93.6 58.4 1.1652732 
50.0 93.6 58.4 1.1823048 
80.0 93.6 58.4 1.2092904 
0.0 97.2 0.8 0.001275246 
40.0 97.2 0.8 0.7915356 
50.0 97.2 0.8 0.836244 
0.0 97.2 18.8 0.025884936 
10.0 97.2 18.8 1.0234512 
40.0 97.2 18.8 1.2083256 
50.0 97.2 18.8 1.2333852 
60.0 97.2 18.8 1.2528684 
0.0 97.2 36.8 0.04393548 
10.0 97.2 36.8 1.0448892 
30.0 97.2 36.8 1.1777076 
10.0 97.2 54.8 1.0252476 
20.0 97.2 54.8 1.1041596 
40.0 97.2 54.8 1.1708136 
50.0 97.2 54.8 1.1882088 
60.0 97.2 54.8 1.2008556 
70.0 97.2 54.8 1.2099636 
90.0 97.2 54.8 1.22238 
90.0 90.0 44.0 1.2532644 
80.0 100.8 33.2 1.2688992 
60.0 104.4 11.6 1.2237444 
30.0 111.6 22.4 1.1647512 
60.0 111.6 40.4 1.23543 
80.0 115.2 0.8 0.906048 
90.0 115.2 18.8 1.2765816 
90.0 115.2 36.8 1.2671784 
90.0 115.2 54.8 1.23282 
20.0 118.8 15.2 1.0815732 
30.0 118.8 15.2 1.1354652 
60.0 118.8 15.2 1.2214512 
70.0 118.8 15.2 1.23849 
90.0 118.8 15.2 1.264374 
30.0 118.8 33.2 1.1645676 
80.0 118.8 33.2 1.2612852 
100.0 118.8 33.2 1.2765924 
10.0 118.8 51.2 1.0251108 
40.0 118.8 51.2 1.17837 
0.0 122.4 11.6 0.014089032 
80.0 122.4 11.6 1.231902 
10.0 122.4 29.6 1.0224864 
20.0 122.4 29.6 1.1111508 
60.0 122.4 29.6 1.2333204 
90.0 122.4 29.6 1.26927 
10.0 122.4 47.6 1.0241676 
30.0 122.4 47.6 1.1502504 
40.0 122.4 47.6 1.1783376 
0.0 129.6 4.4 0.005365404 
30.0 129.6 4.4 0.9892368 
70.0 129.6 4.4 1.1100348 
90.0 129.6 4.4 1.1433888 
10.0 129.6 22.4 1.000764 
40.0 129.6 22.4 1.1768292 
70.0 129.6 22.4 1.237032 
90.0 129.6 22.4 1.2608208 
0.0 129.6 40.4 0.03871044 
20.0 129.6 40.4 1.1095632 
80.0 129.6 40.4 1.2474288 
20.0 129.6 58.4 1.1006172 
40.0 129.6 58.4 1.170018 
70.0 129.6 58.4 1.2143844 
100.0 129.6 58.4 1.2339432 
10.0 133.2 0.8 0.4468716 
20.0 133.2 0.8 0.6045984 
40.0 133.2 0.8 0.7526232 
70.0 133.2 0.8 0.8576316 
90.0 133.2 0.8 0.9003924 
70.0 133.2 18.8 1.225638 
90.0 133.2 18.8 1.2514428 
0.0 133.2 36.8 0.035333064 
20.0 133.2 36.8 1.1049912 
40.0 133.2 36.8 1.1824488 
70.0 133.2 36.8 1.235142 
100.0 133.2 36.8 1.2628944 
20.0 133.2 54.8 1.0992096 
80.0 133.2 54.8 1.2250908 
0.0 136.8 15.2 0.016375068 
30.0 136.8 15.2 1.1077992 
0.0 28.8 15.2 0.04372992 
10.0 32.4 11.6 0.930402 
20.0 32.4 29.6 1.0551024 
30.0 32.4 47.6 1.0629612 
20.0 50.4 11.6 1.0747656 
30.0 57.6 40.4 1.1404224 
50.0 57.6 58.4 1.1499768 
60.0 57.6 58.4 1.1590596 
30.0 64.8 33.2 1.1595924 
30.0 75.6 22.4 1.1699568 
40.0 75.6 40.4 1.1948076 
50.0 75.6 40.4 1.212768 
60.0 75.6 40.4 1.225638 
30.0 79.2 18.8 1.167408 
30.0 82.8 33.2 1.1811816 
30.0 97.2 18.8 1.1731824 
40.0 97.2 36.8 1.2073968 
50.0 97.2 36.8 1.2278772 
60.0 97.2 36.8 1.2427704 
20.0 111.6 22.4 1.1134224 
10.0 90.0 8.0 0.9308376 
90.0 90.0 8.0 1.2457476 
40.0 90.0 26.0 1.2179592 
50.0 90.0 26.0 1.2404736 
60.0 90.0 26.0 1.257912 
60.0 90.0 44.0 1.2293928 
30.0 18.0 44.0 1.0077156 
90.0 18.0 44.0 1.0487124 
80.0 36.0 8.0 1.2098592 
20.0 36.0 26.0 1.0697472 
80.0 36.0 44.0 1.135224 
80.0 54.0 8.0 1.2393864 
80.0 54.0 44.0 1.1893212 
30.0 72.0 8.0 1.0945404 
80.0 72.0 8.0 1.2265092 
0.0 72.0 26.0 0.04014072 
10.0 72.0 44.0 1.0377072 
80.0 14.4 29.6 1.0563264 
80.0 14.4 47.6 1.020492 
10.0 21.6 40.4 0.9197496 
80.0 21.6 58.4 1.0419156 
40.0 25.2 36.8 1.074564 
50.0 25.2 36.8 1.0870884 
40.0 28.8 15.2 1.1267244 
50.0 28.8 15.2 1.1482452 
80.0 28.8 15.2 1.1862288 
20.0 28.8 51.2 1.012104 
50.0 28.8 51.2 1.0750356 
60.0 28.8 51.2 1.0818504 
80.0 32.4 11.6 1.2044088 
80.0 32.4 47.6 1.1098044 
20.0 43.2 0.8 0.6443496 
10.0 43.2 36.8 0.9944748 
20.0 43.2 54.8 1.0505988 
40.0 43.2 54.8 1.1056716 
50.0 43.2 54.8 1.1180016 
20.0 46.8 33.2 1.0909872 
40.0 46.8 33.2 1.1593044 
50.0 46.8 33.2 1.1760012 
40.0 50.4 11.6 1.1708424 
10.0 50.4 47.6 0.9984564 
20.0 57.6 4.4 0.97848 
50.0 57.6 4.4 1.1285928 
60.0 57.6 4.4 1.1559996 
80.0 57.6 40.4 1.2059352 
10.0 61.2 18.8 1.0184436 
10.0 61.2 36.8 1.0225656 
40.0 61.2 54.8 1.1512548 
50.0 61.2 54.8 1.165248 
30.0 64.8 15.2 1.1641248 
20.0 64.8 15.2 1.1099664 
50.0 64.8 15.2 1.225782 
60.0 64.8 15.2 1.245762 
80.0 64.8 33.2 1.2369924 
0.0 64.8 51.2 0.06795756 
10.0 68.4 29.6 1.0294812 
10.0 68.4 47.6 1.0300176 
80.0 75.6 4.4 1.1910636 
80.0 75.6 22.4 1.2670812 
40.0 75.6 58.4 1.1646252 
50.0 75.6 58.4 1.1790864 
70.0 75.6 58.4 1.1963016 
20.0 79.2 0.8 0.6496236 
80.0 79.2 18.8 1.2715308 
40.0 79.2 54.8 1.1756196 
50.0 79.2 54.8 1.192248 
80.0 79.2 54.8 1.2158136 
40.0 82.8 51.2 1.1830284 
50.0 82.8 51.2 1.1998152 
70.0 82.8 51.2 1.2209868 
20.0 86.4 11.6 1.0781424 
10.0 86.4 47.6 1.0422936 
10.0 93.6 4.4 0.8417988 
10.0 93.6 22.4 1.0355076 
10.0 93.6 40.4 1.0446012 
10.0 93.6 58.4 1.02258 
10.0 97.2 0.8 0.4748364 
80.0 97.2 18.8 1.2811392 
100.0 97.2 54.8 1.2259728 
60.0 115.2 36.8 1.2363192 
70.0 136.8 15.2 1.209168 
90.0 136.8 15.2 1.2363336 
10.0 136.8 33.2 1.0113732 
40.0 136.8 33.2 1.1779992 
70.0 136.8 33.2 1.2329352 
90.0 136.8 33.2 1.2537108 
0.0 136.8 51.2 0.04437576 
20.0 136.8 51.2 1.0992168 
40.0 136.8 51.2 1.172304 
70.0 136.8 51.2 1.2196548 
90.0 136.8 51.2 1.2366648 
10.0 129.6 4.4 0.808524 
40.0 129.6 4.4 1.0315944 
60.0 129.6 40.4 1.2233592 
70.0 129.6 40.4 1.2364128 
90.0 129.6 40.4 1.2554208 
50.0 18.0 44.0 1.0372608 
60.0 18.0 44.0 1.0440468 
30.0 7.2 36.8 0.9450324 
10.0 7.2 54.8 0.8377812 
70.0 7.2 54.8 0.9644112 
10.0 10.8 33.2 0.8630964 
50.0 14.4 29.6 1.0400184 
60.0 14.4 29.6 1.0487736 
10.0 14.4 47.6 0.8807112 
40.0 21.6 22.4 1.0845612 
50.0 21.6 22.4 1.101024 
10.0 28.8 33.2 0.952506 
40.0 28.8 33.2 1.0977876 
50.0 28.8 33.2 1.1122236 
70.0 28.8 51.2 1.0855188 
0.0 32.4 29.6 0.06512904 
40.0 32.4 11.6 1.1340648 
50.0 32.4 11.6 1.1597976 
80.0 32.4 29.6 1.1605572 
10.0 32.4 47.6 0.9531216 
0.0 133.2 18.8 0.020229444 
30.0 133.2 18.8 1.1277756 
10.0 133.2 18.8 0.9831924 
40.0 133.2 18.8 1.1622204 
80.0 133.2 36.8 1.2462408 
30.0 133.2 54.8 1.1424132 
60.0 133.2 54.8 1.2052584 
70.0 133.2 54.8 1.2163104 
0.0 136.8 33.2 0.031932504 
20.0 136.8 33.2 1.0990512 
90.0 133.2 54.8 1.232244 
10.0 136.8 15.2 0.9608076 
40.0 136.8 15.2 1.1433816 
10.0 18.0 44.0 0.9016308 
10.0 36.0 8.0 0.9032688 
30.0 36.0 8.0 1.083798 
40.0 36.0 8.0 1.1250288 
50.0 36.0 8.0 1.154718 
10.0 36.0 44.0 0.969984 
40.0 36.0 44.0 1.1048292 
50.0 36.0 44.0 1.1183364 
40.0 7.2 54.8 0.9513216 
50.0 10.8 33.2 1.0075716 
60.0 10.8 33.2 1.0147824 
80.0 10.8 33.2 1.0206612 
20.0 10.8 51.2 0.9295812 
50.0 10.8 51.2 0.986544 
70.0 10.8 51.2 0.9917532 
90.0 10.8 51.2 0.9893016 
10.0 14.4 29.6 0.8867664 
30.0 14.4 29.6 1.0056672 
30.0 21.6 22.4 1.0577664 
20.0 21.6 40.4 0.996174 
20.0 25.2 54.8 0.9947052 
50.0 25.2 54.8 1.0552968 
60.0 25.2 54.8 1.0608048 
80.0 25.2 54.8 1.0645272 
10.0 28.8 15.2 0.9378468 
30.0 28.8 15.2 1.094418 
0.0 115.2 54.8 0.05149008 
0.0 118.8 33.2 0.035410104 
0.0 118.8 51.2 0.0481752 
0.0 122.4 29.6 0.03163968 
40.0 126.0 8.0 1.1079324 
90.0 126.0 8.0 1.2123612 
80.0 129.6 22.4 1.250424 
0.0 133.2 54.8 0.04727304 
80.0 108.0 44.0 1.2522528 
0.0 3.6 58.4 0.12004992 
0.0 7.2 36.8 0.10020672 
0.0 10.8 51.2 0.10709244 
0.0 18.0 44.0 0.09356976 
0.0 21.6 22.4 0.06334992 
0.0 21.6 40.4 0.0865044 
0.0 25.2 18.8 0.05366196 
0.0 25.2 36.8 0.07940304 
0.0 25.2 54.8 0.09521316 
0.0 32.4 11.6 0.03360096 
0.0 36.0 26.0 0.057564 
30.0 57.6 4.4 1.0468908 
0.0 39.6 22.4 0.0498564 
0.0 39.6 58.4 0.08632152 
0.0 43.2 0.8 0.0023691996 
0.0 43.2 54.8 0.08131464 
60.0 46.8 33.2 1.1872188 
0.0 46.8 33.2 0.06003648 
0.0 50.4 29.6 0.05428656 
0.0 54.0 8.0 0.018245916 
60.0 72.0 26.0 1.2374316 
0.0 79.2 0.8 0.001500606 
0.0 79.2 36.8 0.04972716 
0.0 86.4 11.6 0.01812564 
0.0 36.0 8.0 0.023351688 
50.0 21.6 40.4 1.0627524 
80.0 21.6 40.4 1.076922 
10.0 21.6 58.4 0.9062784 
10.0 28.8 51.2 0.938574 
30.0 28.8 51.2 1.04562 
50.0 39.6 40.4 1.1373048 
60.0 39.6 40.4 1.1472516 
0.0 43.2 18.8 0.04208616 
10.0 43.2 18.8 0.9888516 
40.0 43.2 18.8 1.1693952 
50.0 43.2 18.8 1.1918592 
0.0 43.2 36.8 0.066204 
50.0 43.2 36.8 1.1580552 
50.0 46.8 15.2 1.1989656 
60.0 46.8 15.2 1.2167064 
40.0 50.4 29.6 1.1771784 
50.0 50.4 29.6 1.194984 
0.0 50.4 47.6 0.07137864 
50.0 50.4 47.6 1.1506356 
10.0 64.8 33.2 1.0283976 
90.0 64.8 33.2 1.2427056 
30.0 129.6 40.4 1.1553768 
0.0 129.6 58.4 0.05027796 
80.0 129.6 58.4 1.2224376 
0.0 133.2 0.8 0.0009705024 
70.0 18.0 44.0 1.0477584 
90.0 36.0 8.0 1.2221424 
80.0 36.0 26.0 1.1858292 
0.0 36.0 44.0 0.07812036 
30.0 36.0 44.0 1.084788 
30.0 54.0 8.0 1.1098656 
40.0 54.0 8.0 1.1520648 
50.0 54.0 8.0 1.1822328 
0.0 54.0 26.0 0.0478728 
10.0 54.0 26.0 1.0214676 
30.0 54.0 26.0 1.1599308 
50.0 54.0 26.0 1.2087936 
10.0 54.0 44.0 1.0081044 
20.0 54.0 44.0 1.0893204 
50.0 54.0 44.0 1.1680848 
60.0 54.0 44.0 1.1775204 
90.0 54.0 44.0 1.1927448 
90.0 21.6 58.4 1.0406916 
40.0 25.2 18.8 1.1085948 
70.0 25.2 18.8 1.1503296 
100.0 25.2 18.8 1.166688 
10.0 25.2 36.8 0.9369972 
20.0 39.6 22.4 1.0808964 
80.0 39.6 22.4 1.208196 
10.0 39.6 40.4 0.9819252 
30.0 39.6 40.4 1.1009412 
30.0 39.6 58.4 1.0709172 
60.0 39.6 58.4 1.1088936 
90.0 39.6 58.4 1.1165796 
30.0 43.2 18.8 1.13787 
20.0 43.2 36.8 1.0780812 
10.0 46.8 15.2 0.9835704 
30.0 46.8 15.2 1.1411604 
0.0 46.8 51.2 0.07630344 
20.0 46.8 51.2 1.0630908 
70.0 46.8 51.2 1.1482344 
90.0 46.8 51.2 1.153314 
10.0 50.4 11.6 0.96732 
50.0 50.4 11.6 1.1974104 
30.0 50.4 29.6 1.1492964 
20.0 50.4 47.6 1.0765332 
70.0 57.6 4.4 1.1780748 
0.0 57.6 22.4 0.04141332 
20.0 57.6 22.4 1.1174436 
80.0 57.6 22.4 1.2564612 
10.0 57.6 40.4 1.0166472 
10.0 57.6 58.4 1.0046448 
40.0 57.6 58.4 1.1369448 
70.0 57.6 58.4 1.1642832 
20.0 57.6 58.4 1.079604 
0.0 61.2 0.8 0.0018481644 
20.0 61.2 0.8 0.65592 
40.0 61.2 18.8 1.2025476 
50.0 61.2 18.8 1.2258828 
40.0 61.2 36.8 1.1762064 
50.0 61.2 36.8 1.193418 
80.0 61.2 36.8 1.2221244 
10.0 64.8 15.2 1.0063404 
80.0 136.8 33.2 1.2445668 
0.0 111.6 22.4 0.026979408 
0.0 90.0 26.0 0.035620308 
0.0 97.2 54.8 0.05617008 
